2D_FFT_0_final/.Xil/Vivado-16968-DESKTOP-MFVSKC9/hw_ila_data_3/zip_work/waveform.vcd
$date
        2025-Jan-10 09:55:17
$end
$version
        Vivado v2018.3 (64-bit)
$end
$timescale
        1ps
$end
$scope module dut $end
$var reg 13 " u_FFT_Top/ram_addr_write [12:0] $end
$var reg 1 / u_FFT_Top/<const0>_1 $end
$var reg 1 0 u_FFT_Top/<const0>_2 $end
$var reg 13 1 u_FFT_Top/ram_addr_read [12:0] $end
$var reg 1 > u_FFT_Top/<const0>_3 $end
$var reg 1 ? u_FFT_Top/<const0> $end
$var reg 32 @ u_FFT_Top/ram_data_in [31:0] $end
$var reg 32 ` u_FFT_Top/ram_data_out [31:0] $end
$var reg 32 "" u_FFT_Top/s_axis_data_tdata [31:0] $end
$var reg 32 B" u_FFT_Top/fft_256_data_out [31:0] $end
$var reg 32 b" u_FFT_Top/fft_16_data_out_1 [31:0] $end
$var reg 32 $# u_FFT_Top/fft_16_data_out [31:0] $end
$var reg 1 D# u_FFT_Top/fft_16_valid_out $end
$var reg 1 E# _TRIGGER $end
$var reg 1 F# _WINDOW $end
$var reg 1 G# _GAP $end
$upscope $end
$enddefinitions $end
#0
$dumpvars
b100000101011 "
0/
00
b0 1
0>
0?
b1110110011100001000101100011 @
b10001011011101111001110110011 `
b11111110010101000000000100011010 ""
b1110110011100001000101100011 B"
b0 b"
b0 $#
0D#
0E#
1F#
0G#
$end
#6
b11110100101001101110111111111111 B"
#7
b110011100000000010011111 B"
#8
b11111100010111011111111100010011 B"
#9
b11010111111111101010000 B"
#10
b100101110000000001011101 B"
#11
b11111111001011100000000111010111 B"
#12
b11111111110001100000000100011011 B"
#13
b11111111100101100000000110101110 B"
#14
b11111111101101000000000010010001 B"
#15
b100000110100 "
b11111111101101000000000010010001 @
b1000101001111111001010000 ""
b11111111000011010000001000110001 B"
#16
b100000110101 "
b11111111000011010000001000110001 @
#26
b1011011000000000000101110 B"
#27
b11111100011100000000010010101100 B"
#28
b11111110011100000000110110100001 B"
#29
b100010101001111101000011111 B"
#30
b11111100011110001111111000011101 B"
#31
b1110000001000001111111101010 B"
#32
b11010101111000000011011011010 B"
#33
b11110001010000101111001001111111 B"
#34
b11001111110000001010100100 B"
#35
b100000111110 "
b11001111110000001010100100 @
b101001011111111100101011 ""
b110000010011111111111010110 B"
#36
b100000111111 "
b110000010011111111111010110 @
#46
b11110110111001011111011000101000 B"
#47
b11111011110111110000000101010001 B"
#48
b100001100110000101100000101 B"
#49
b11111011011111010000001101001111 B"
#50
b11111011110001111110110000111101 B"
#51
b11111000111010000000110101000000 B"
#52
b1000111011111011011100011 B"
#53
b11111111110111001111111010110111 B"
#54
b11111110100110011111110000110101 B"
#55
b100001001000 "
b11111110100110011111110000110101 @
b11111111111100110000001010011110 ""
b1000101111110110000111 B"
#56
b100001001001 "
b1000101111110110000111 @
#66
b101010101111111001100110 B"
#67
b11111111011001001111111010000110 B"
#68
b11111111110101101111111010010100 B"
#69
b11111111011000101111111011010111 B"
#70
b11001011111111001001001 B"
#71
b11111111000101101111111000011010 B"
#72
b10110001101111111001110110 B"
#73
b11111111110011111111101111010010 B"
#74
b11110101011101100000000110000001 B"
#75
b100001010010 "
b11110101011101100000000110000001 @
b101011101111111001110011 ""
b10101000011111110110111000 B"
#76
b100001010011 "
b10101000011111110110111000 @
#86
b11110000101111000100110110 B"
#87
b11110000010010010000101010110011 B"
#88
b1000000010001110000101001 B"
#89
b1011101111101011110100 B"
#90
b11111101111111010000010001110110 B"
#91
b1010111100000101100001110 B"
#92
b11101100001111101111010011 B"
#93
b100010111111110001001111 B"
#94
b11111100000011100000100101101000 B"
#95
b100001011100 "
b11111100000011100000100101101000 @
b11111111001011001111111011110110 ""
b11110110101111010000011110110000 B"
#96
b100001011101 "
b11110110101111010000011110110000 @
#106
b1010101110101111100001001111 B"
#107
b11110011110001100000001000111110 B"
#108
b1100001111111111000111100 B"
#109
b11111111000100000000000010010000 B"
#110
b100101111111001100001 B"
#111
b100101101111111100000011 B"
#112
b111011100000000000011101 B"
#113
b11111101111111110001010 B"
#114
b110001101111111111001110 B"
#115
b100001100110 "
b110001101111111111001110 @
b11111111100101110000000101100001 ""
b1111111111111110010011 B"
#116
b100001100111 "
b1111111111111110010011 @
#126
b1001101000000000000101010 B"
#127
b101101101111111010110010 B"
#128
b10110100010000001001100001 B"
#129
b110110111000000000100110111 B"
#130
b11111011111011011111101000100000 B"
#131
b101000100000000001001101 B"
#132
b10101101001011111101100001011 B"
#133
b1000000111111001000000000 B"
#134
b11101110111000000000100110101110 B"
#135
b100001110000 "
b11101110111000000000100110101110 @
b11111111111101001111111001011011 ""
b1000000111111111000111000 B"
#136
b100001110001 "
b1000000111111111000111000 @
#146
b11111101101110101111110110011001 B"
#147
b11110101111100010000010110010111 B"
#148
b110111110000001011001010 B"
#149
b110011000001111111101110110 B"
#150
b11111100000110000000001110000000 B"
#151
b11110000010011111111111000111111 B"
#152
b111110100100000011011000101 B"
#153
b11110111110001001111101011011101 B"
#154
b11111110101011011111111100111010 B"
#155
b100001111010 "
b11111110101011011111111100111010 @
b11111111100110011111111101000111 ""
b11111100011111001111111101101100 B"
#156
b100001111011 "
b11111100011111001111111101101100 @
#166
b11111110010001111111111010111101 B"
#167
b11111110111000111111111011101000 B"
#168
b11111110100011111111111111111010 B"
#169
b11111110110000001111111110011001 B"
#170
b11111110110011101111111111111001 B"
#171
b11111110101001011111111100101111 B"
#172
b11111110011001100000000000101110 B"
#173
b11111111011111011111111000000011 B"
#174
b11111100111111110000000011111001 B"
#175
b100010000100 "
b11111100111111110000000011111001 @
b1110111000000001000011111 ""
b11111111011111110000100010001101 B"
#176
b100010000101 "
b11111111011111110000100010001101 @
#186
b11111111100011011111101111010111 B"
#187
b11111000110101001111101111111001 B"
#188
b1010110010100001000011110110 B"
#189
b10110010000000000001011001011 B"
#190
b11110111110011011111101111000111 B"
#191
b10110111010000000101001101 B"
#192
b110110110001111111101101010 B"
#193
b11111001111101101111101010000101 B"
#194
b11111100101001011111111110000001 B"
#195
b100010001110 "
b11111100101001011111111110000001 @
b11111111101100001111111101000011 ""
b110000101110000011000111111 B"
#196
b100010001111 "
b110000101110000011000111111 @
#206
b11010100000011001100100 B"
#207
b11111001011101001111001010011111 B"
#208
b11111101010111000000101011010001 B"
#209
b11111110000100111111101011000100 B"
#210
b11111111010011111111111100000001 B"
#211
b11111101101011001111110101100110 B"
#212
b11111110110101011111110101111111 B"
#213
b11111111110010101111110111000010 B"
#214
b11111110111111101111111000011001 B"
#215
b100010011000 "
b11111110111111101111111000011001 @
b11111101000001001111111011010100 ""
b11111111010101101111110111111010 B"
#216
b100010011001 "
b11111111010101101111110111111010 @
#226
b11111111000000111111111001010010 B"
#227
b11111111110010111111110110000111 B"
#228
b11111110011111101111110110001100 B"
#229
b10010100001111110010011001 B"
#230
b100011111111100110110110 B"
#231
b11110111010010000000001000000100 B"
#232
b11100001111110010110001 B"
#233
b11111111110101101110101101000100 B"
#234
b11110010101001100000001111001011 B"
#235
b100010100010 "
b11110010101001100000001111001011 @
b11011100100000000001011001 ""
b110010110010001011110101110 B"
#236
b100010100011 "
b110010110010001011110101110 @
#246
b11111110010101011111110011100100 B"
#247
b11111101110101010000001100000101 B"
#248
b11100101100000101100101100 B"
#249
b10110110001111110011001010 B"
#250
b11011111111100111001111 B"
#251
b11100010000011111011111 B"
#252
b11111000100011100000110110001010 B"
#253
b1000111101101111011010100111 B"
#254
b11110101001111000000011000001111 B"
#255
b100010101100 "
b11110101001111000000011000001111 @
b10001110000000010001001 ""
b11111111001101101111111010111011 B"
#256
b100010101101 "
b11111111001101101111111010111011 @
#266
b11111110001111010000000110000011 B"
#267
b11111110011000111111111011110000 B"
#268
b11111111000100111111111011000111 B"
#269
b101101111111110110101 B"
#270
b11111111100111001111111101001101 B"
#271
b11101111111101101000 B"
#272
b11111111010000101111111101001101 B"
#273
b100000111111111111001001 B"
#274
b11111110111110101111110111110100 B"
#275
b100010110110 "
b11111110111110101111110111110100 @
b11111101110010101111111001111110 ""
b10100101100000000111100100 B"
#276
b100010110111 "
b10100101100000000111100100 @
#286
b1010000001000000000001000101 B"
#287
b11111001111000001111101101010011 B"
#288
b11111101001101000000000111111011 B"
#289
b11011000011101111001010001100 B"
#290
b101000011001110011010101000 B"
#291
b11110010010001100000110010010101 B"
#292
b1010110111111101111000000 B"
#293
b11111110101010111111100011110010 B"
#294
b11110100111111010000011111100010 B"
#295
b100011000000 "
b11110100111111010000011111100010 @
b1001001010000000001000111 ""
b1001110000001011111001 B"
#296
b100011000001 "
b1001110000001011111001 @
#306
b1010011001111111101001010111 B"
#307
b10011001110000001110001001 B"
#308
b11101001000010110000001101010001 B"
#309
b1101110101100000011010101100 B"
#310
b11110100010000111111110101001101 B"
#311
b11111101010100001111111010111011 B"
#312
b11111010001101010000000000111011 B"
#313
b11111011110001101111111001010111 B"
#314
b11111100110010101111110110011000 B"
#315
b100011001010 "
b11111100110010101111110110011000 @
b10011111111111010100 ""
b11111100111010001111111100111000 B"
#316
b100011001011 "
b11111100111010001111111100111000 @
#326
b11111100111100001111111010010110 B"
#327
b11111101001110101111111100101111 B"
#328
b11111100011010111111110110110111 B"
#329
b11111100000110001111111110001110 B"
#330
b11111100100010101111101000001010 B"
#331
b11111000011010011111111001110010 B"
#332
b1001111000000111010110111 B"
#333
b11111011001010011111100111001100 B"
#334
b11100110001011001111011110110110 B"
#335
b100011010100 "
b11100110001011001111011110110110 @
b11111111010010100000000000010001 ""
b10001001100010001100011101001 B"
#336
b100011010101 "
b10001001100010001100011101001 @
#346
b110000100011011111110000010001 B"
#347
b11110101101010001111110101111010 B"
#348
b111001100110000000110000010 B"
#349
b10100001000001111101100010000 B"
#350
b11110110100010101111011001000111 B"
#351
b11110111010001111111110001101011 B"
#352
b10010110000100000010111010000 B"
#353
b1111101000010001000110011010 B"
#354
b11101101011101001110010100100011 B"
#355
b100011011110 "
b11101101011101001110010100100011 @
b10000100010000000000101010 ""
b100000101100001100110110110 B"
#356
b100011011111 "
b100000101100001100110110110 @
#366
b11111010100110111111100101100110 B"
#367
b10010101111111101010110 B"
#368
b11111010101010101111110010110001 B"
#369
b11111100001110101111101100101001 B"
#370
b11111111001100001111101000001001 B"
#371
b11111101100100101111101100010000 B"
#372
b11111110010001001111101000010000 B"
#373
b11111101011110111111101101110001 B"
#374
b11111111011010001111100000011000 B"
#375
b100011101000 "
b11111111011010001111100000011000 @
b11111111101100101111111111111010 ""
b11111010010101101111100101100100 B"
#376
b100011101001 "
b11111010010101101111100101100100 @
#386
b111011101111111000110000001 B"
#387
b11100101001110000101101111 B"
#388
b11100111011101010000101101110110 B"
#389
b1110101111100000110101 B"
#390
b11101000111000011001101001001011 B"
#391
b10111100110010111111010110010000 B"
#392
b101111100110100101000000010010 B"
#393
b11110101011000011111010000101100 B"
#394
b11110001000010000000011000111011 B"
#395
b100011110010 "
b11110001000010000000011000111011 @
b11111101110000001111111110111000 ""
b100001100100110011011100011011 B"
#396
b100011110011 "
b100001100100110011011100011011 @
#406
b10001110010111111001000100000 B"
#407
b11111010110111001100100001100100 B"
#408
b11011010011100001010111011110 B"
#409
b11101111010010111000001011101001 B"
#410
b1000011110110101010010001101101 B"
#411
b11000011011010000101000110111101 B"
#412
b11110100100111110000000110101010 B"
#413
b11110101111111100010010111110110 B"
#414
b11100101100100010000101011000001 B"
#415
b100011111100 "
b11100101100100010000101011000001 @
b1111110101111111101010110 ""
b11100001111110011111110101101100 B"
#416
b100011111101 "
b11100001111110011111110101101100 @
#426
b11111110110110110000100111011010 B"
#427
b11011111100001000000010001011011 B"
#428
b11110111000001101100110011101000 B"
#429
b11000111011111101100010101110 B"
#430
b11111000101010100000100110011100 B"
#431
b11110011001000110010100011101010 B"
#432
b1010001001011001011100101010101 B"
#433
b1100111101110001011001001 B"
#434
b101011101010011101110110100111 B"
#435
b100100000110 "
b101011101010011101110110100111 @
b10111001111111010111100 ""
b10000000011101110111001010 B"
#436
b100100000111 "
b10000000011101110111001010 @
#446
b10010000011010100001010100100111 B"
#447
b11011001000111100101101110011011 B"
#448
b11011101100000100111110011011000 B"
#449
b11101010110011000001000100011100 B"
#450
b11000110110100010010010100001111 B"
#451
b11111101010011100001101010001011 B"
#452
b100110000100110001100010010101 B"
#453
b1100011010110000110110001011 B"
#454
b101001011011100011000010110101 B"
#455
b100100010000 "
b101001011011100011000010110101 @
b11111111100101010000000110010010 ""
b10011011111111111100011100101010 B"
#456
b100100010001 "
b10011011111111111100011100101010 @
#466
b11100101010100110000000111111011 B"
#467
b11011100011010010000010111011011 B"
#468
b11011011100110011111110010101011 B"
#469
b11101011100100000000001010011110 B"
#470
b11110001101101010000001001110011 B"
#471
b11110001100101111111111101010010 B"
#472
b11110011100001101111111101100010 B"
#473
b11110100011010001111111110100110 B"
#474
b11110101011001011111111111010111 B"
#475
b100100011010 "
b11110101011001011111111111010111 @
b11111111000000110000000000010011 ""
b11110011110100011111111010001110 B"
#476
b100100011011 "
b11110011110100011111111010001110 @
#486
b11110101010110110000000000001011 B"
#487
b11111110010101100000010100101000 B"
#488
b11110001100000101111011010110000 B"
#489
b11110010000010011111111010101001 B"
#490
b11101101100110111111010001101010 B"
#491
b11100011110001101111001110010011 B"
#492
b11100100101001000010100000000011 B"
#493
b11110101100111111100110000001001 B"
#494
b10011001010001111001000110010 B"
#495
b100100100100 "
b10011001010001111001000110010 @
b10110001111111010111010 ""
b11111111100001001111001101111011 B"
#496
b100100100101 "
b11111111100001001111001101111011 @
#506
b100011010010000100010111000 B"
#507
b100000001110000001110010010 B"
#508
b101111111111111000001110010 B"
#509
b1011000101111001001010100 B"
#510
b11100101011111101000111011100 B"
#511
b11110010101011110000101000001100 B"
#512
b11111101010011101111110011110000 B"
#513
b1011111000000000100011100 B"
#514
b11111101111001100000011101000011 B"
#515
b100100101110 "
b11111101111001100000011101000011 @
b100010100000000001011011 ""
b11111111110001110000010010110001 B"
#516
b100100101111 "
b11111111110001110000010010110001 @
#526
b110100010000001000111110 B"
#527
b11111111110101110000001001011000 B"
#528
b11111111101010100000000111000100 B"
#529
b11111111110010000000000110000000 B"
#530
b1011010000000011010001 B"
#531
b11111111011011110000001000001001 B"
#532
b11111111101101000000001011101010 B"
#533
b101100110011111101110010000 B"
#534
b11111110011100000000000000010000 B"
#535
b100100111000 "
b11111110011100000000000000010000 @
b100100100000000001110001 ""
b10110011011111111111011101 B"
#536
b100100111001 "
b10110011011111111111011101 @
#546
b11111100111100110000000101101010 B"
#547
b11110010101001110000101000110010 B"
#548
b100001000110110001001101000001 B"
#549
b11110000000001110001001111011001 B"
#550
b11110111001101111111111011110010 B"
#551
b11110010111111010000010100100100 B"
#552
b101011100000001010111000 B"
#553
b110110001110000001001010000 B"
#554
b11111101110010010000000000001001 B"
#555
b100101000010 "
b11111101110010010000000000001001 @
b11111111001110101111111010000111 ""
b1000110010000011001011010 B"
#556
b100101000011 "
b1000110010000011001011010 @
#566
b11011101111100011110101111101100 B"
#567
b11111000110011000000000100011101 B"
#568
b11110101000111110000000001111011 B"
#569
b11110110001011101111110110000011 B"
#570
b11111011101011111111111110101110 B"
#571
b11111100110101011111111100111010 B"
#572
b11111100010000101111111000100000 B"
#573
b11111100101101011111111001011011 B"
#574
b11111100101111101111111001111010 B"
#575
b100101001100 "
b11111100101111101111111001111010 @
b1100111111111101101110 ""
b11111100110111101111111001111101 B"
#576
b100101001101 "
b11111100110111101111111001111101 @
#586
b11111100001111101111111000000100 B"
#587
b11111101000001001111111010101010 B"
#588
b11111111100101111111111111001010 B"
#589
b11111001101000011111100111011100 B"
#590
b11111010100001001111110111001010 B"
#591
b11111000111001011111100110100001 B"
#592
b11110110010110111111101110010001 B"
#593
b11111001111001100000111000001110 B"
#594
b11011101011110001100011101 B"
#595
b100101010110 "
b11011101011110001100011101 @
b111111110000000100010001 ""
b1110001011111111110010010010 B"
#596
b100101010111 "
b1110001011111111110010010010 @
#606
b1110010111111110011110111 B"
#607
b100100111000000010111001010 B"
#608
b11111001001111111110100110 B"
#609
b100010111101111011000100101 B"
#610
b10010101101111100010000110 B"
#611
b1101011011001110110011100010 B"
#612
b11110101100100110000110100100011 B"
#613
b11111111000001110000000111100101 B"
#614
b111101100000010001010111 B"
#615
b100101100000 "
b111101100000010001010111 @
b11111110011011101111111101110110 ""
b11111110110000100000011010010001 B"
#616
b100101100001 "
b11111110110000100000011010010001 @
#626
b1010000000001110111011 B"
#627
b100000000000001000011000 B"
#628
b11111111101111100000001000100000 B"
#629
b11111111101100000000000110110101 B"
#630
b11111111110000100000000110001001 B"
#631
b11111111111100000000000100110101 B"
#632
b11111111100000000000000111110101 B"
#633
b11111111111100100000000111110110 B"
#634
b10110010001111110111110101 B"
#635
b100101101010 "
b10110010001111110111110101 @
b10001101001111111100100100 ""
b11111101101011110000000111110000 B"
#636
b100101101011 "
b11111101101011110000000111110000 @
#646
b11101010000001000010101 B"
#647
b11111100010010010000001111101101 B"
#648
b11111000111101000000100101110011 B"
#649
b10011110111100000110011000110 B"
#650
b11101110101011100000100100000011 B"
#651
b11111000101010111111101010011010 B"
#652
b11110111110011000000000011010100 B"
#653
b10000010011111111011010011 B"
#654
b11001011111111111010011011 B"
#655
b100101110100 "
b11001011111111111010011011 @
b11111110110111100000000011011001 ""
b11111010111100101111110100110110 B"
#656
b100101110101 "
b11111010111100101111110100110110 @
#666
b11111011101011110000000001000011 B"
#667
b11100110000000001110111101011011 B"
#668
b11111110100100000000001000110110 B"
#669
b11111010011010011111111110100011 B"
#670
b11111100000101011111110101010100 B"
#671
b1101001111111100100101 B"
#672
b111101111111001110100 B"
#673
b11111111001111011111110110101101 B"
#674
b11111111011100011111111000001010 B"
#675
b100101111110 "
b11111111011100011111111000001010 @
b11111110110011001111111110100000 ""
b11111111010011101111111000100101 B"
#676
b100101111111 "
b11111111010011101111111000100101 @
#686
b11111111010001101111111000011000 B"
#687
b11111110110011111111110111000110 B"
#688
b11111111100100001111111001000000 B"
#689
b110110111111111010001010 B"
#690
b11111011111001101111101000010001 B"
#691
b11111101100111101111110111110001 B"
#692
b11111100111000111111101011010001 B"
#693
b11111100100000111111110111011010 B"
#694
b1100011000000100100000011 B"
#695
b100110001000 "
b1100011000000100100000011 @
b10110101111111111101010110 ""
b1001101010001110010111101111 B"
#696
b100110001001 "
b1001101010001110010111101111 @
#706
b1110111100000000001001000110 B"
#707
b1111000000000000011100010 B"
#708
b101000011110000011001110111 B"
#709
b11110111101111111001100111 B"
#710
b11110111111111011101011111 B"
#711
b10001001111111101110100101 B"
#712
b1001010110001111010110110101 B"
#713
b11110011101001010001001100011000 B"
#714
b1000010000001111101111 B"
#715
b100110010010 "
b1000010000001111101111 @
b11111110110000010000000001101000 ""
b1000111110000011001011101 B"
#716
b100110010011 "
b1000111110000011001011101 @
#726
b11111110111010110000011100001001 B"
#727
b11110000000001101001110 B"
#728
b11111010000000111010111 B"
#729
b11111111101000010000001000010000 B"
#730
b11111111101010100000000110101000 B"
#731
b11111111110001000000000110001010 B"
#732
b11111111110110010000000101011101 B"
#733
b11111111011100010000001000001100 B"
#734
b11111111111110110000000110100101 B"
#735
b100110011100 "
b11111111111110110000000110100101 @
b11111111011111001111111011111101 ""
b1111010001111111001110010 B"
#736
b100110011101 "
b1111010001111111001110010 @
#746
b11111100011011100000001101100010 B"
#747
b11111111100000110000001101100011 B"
#748
b11111011010001010000010101101010 B"
#749
b11111010110001000000100111100101 B"
#750
b10001111000000000100111100111 B"
#751
b11101000010101110000001010000011 B"
#752
b11111001101001101111010010110000 B"
#753
b11111010000101001111110111110111 B"
#754
b100100111011111101110000010 B"
#755
b100110100110 "
b100100111011111101110000010 @
b10111100000000000000010111 ""
b10000111011111101110100010 B"
#756
b100110100111 "
b10000111011111101110100010 @
#766
b11110111111111111111101010000100 B"
#767
b11111000110100001111110011110010 B"
#768
b11100110001110011110110101110100 B"
#769
b110001111010000010101101110 B"
#770
b11111110100101001111111101001000 B"
#771
b1001001001111110010111010 B"
#772
b101000101001111111011111101 B"
#773
b11100011111111110111001011 B"
#774
b10000011011111110100010000 B"
#775
b100110110000 "
b10000011011111110100010000 @
b11111101110011110000000100011110 ""
b10001011111111110110111000 B"
#776
b100110110001 "
b10001011111111110110111000 @
#786
b1111000101111110111010100 B"
#787
b1101111101111110110111000 B"
#788
b1010011111111110101101111 B"
#789
b10010000111111110111111011 B"
#790
b11000010101111110111000110 B"
#791
b11111101001111111111100100001000 B"
#792
b111001001111111011000100 B"
#793
b110000011111101100011101 B"
#794
b10001001110000000000011110 B"
#795
b100110111010 "
b10001001110000000000011110 @
b11111111000110101111111110000000 ""
b1001111110110000100101000000 B"
#796
b100110111011 "
b1001111110110000100101000000 @
#806
b10010011100111101111101101111 B"
#807
b10011011111010000110000111111 B"
#808
b110010000010111000100 B"
#809
b110001011010000101000010010 B"
#810
b11111001101111110010110000 B"
#811
b11100110111111011001101000 B"
#812
b1010011011111111110101011 B"
#813
b1000001011011111110000100010 B"
#814
b11101011001110010010001011100010 B"
#815
b100111000100 "
b11101011001110010010001011100010 @
b10101100011111111101011100 ""
b10101101000000010101110001 B"
#816
b100111000101 "
b10101101000000010101110001 @
#826
b10000001010000100111100001 B"
#827
b11111110100100100000100011101101 B"
#828
b1001100110000001001111000 B"
#829
b101100010000000100101000 B"
#830
b11111111010110000000000111111010 B"
#831
b11111111100101110000000101111011 B"
#832
b11111111110010100000000110000000 B"
#833
b11111111110100100000000101110001 B"
#834
b11111111001011000000001001110000 B"
#835
b100111001110 "
b11111111001011000000001001110000 @
b11111110011011101111111111010000 ""
b101100000000101100110 B"
#836
b100111001111 "
b101100000000101100110 @
#846
b1110011111111110110100000 B"
#847
b11111000101111110000011011001010 B"
#848
b11111110110010000000010110100100 B"
#849
b11110111111111110000100001101111 B"
#850
b11111011000100010000110011111011 B"
#851
b11010101001100000011101010110 B"
#852
b11001111101000011111011010101101 B"
#853
b11111100011110011110001100000100 B"
#854
b11111101001010011111100101100011 B"
#855
b100111011000 "
b11111101001010011111100101100011 @
b1000000000000010101011 ""
b1110000101001111001111010010 B"
#856
b100111011001 "
b1110000101001111001111010010 @
#866
b10010111101111010011111010 B"
#867
b11101110111110001111001110110101 B"
#868
b11110011011111001111011110100010 B"
#869
b11011001101101101101111100111000 B"
#870
b100001001101010001001111110111 B"
#871
b1000000110011111111010100111 B"
#872
b1110010110101111101000000101 B"
#873
b10100011001001111111101011011 B"
#874
b1101110111001111101111010011 B"
#875
b100111100010 "
b1101110111001111101111010011 @
b1110001101111111110100101 ""
b1001111111101111101011001100 B"
#876
b100111100011 "
b1001111111101111101011001100 @
#886
b1010100100001111110011001010 B"
#887
b1001110011001111110011101001 B"
#888
b1001101100001111110010011001 B"
#889
b1001001000001111110000000011 B"
#890
b1011111110101111110101011101 B"
#891
b1100100100001111101111011000 B"
#892
b11111110101101001111000101110011 B"
#893
b1101110101010000010000110010 B"
#894
b1111001100011111100101100011 B"
#895
b100111101100 "
b1111001100011111100101100011 @
b11111110101011110000000011100010 ""
b10111101110110000101010101101 B"
#896
b100111101101 "
b10111101110110000101010101101 @
#906
b110001110111100001101000111101 B"
#907
b1000100100100001001110011000110 B"
#908
b110110001010000101000110000011 B"
#909
b11101100011110110010000110011110 B"
#910
b1110111100000010100100100100 B"
#911
b11101111011110110100001101 B"
#912
b10101011011110001110110101 B"
#913
b11111000101010000001111000001110 B"
#914
b10000110100110001101100101001 B"
#915
b100111110110 "
b10000110100110001101100101001 @
b11111110101111001111111110000100 ""
b1111010011100001110001000100101 B"
#916
b100111110111 "
b1111010011100001110001000100101 @
#926
b101001000110000000010101011010 B"
#927
b10001001011010011011010110111 B"
#928
b11110101000000010010100100110000 B"
#929
b10000010110101110111100100101 B"
#930
b110011111001110110011100100 B"
#931
b11110011111011111111111101100111 B"
#932
b11111100011011111111011110011100 B"
#933
b10111011001111101101010101 B"
#934
b100110110011100110100001110 B"
#935
b101000000000 "
b100110110011100110100001110 @
b1101111011111111001101100 ""
b11110100001000101111001000010101 B"
#936
b101000000001 "
b11110100001000101111001000010101 @
#946
b11110110011100011111010101000100 B"
#947
b10100001101111101110010 B"
#948
b1100111001001111010100011010 B"
#949
b1011010010010101010100001 B"
#950
b11001101001100010000101101001111 B"
#951
b1100010111000010001000111 B"
#952
b10011101110100001110100011110011 B"
#953
b1010101111111101100001010001101 B"
#954
b1101110000011100001110001010010 B"
#955
b101000001010 "
b1101110000011100001110001010010 @
b11111111010111011111111110011001 ""
b100101000100101100011000101111 B"
#956
b101000001011 "
b100101000100101100011000101111 @
#966
b10011001111101111110011110011 B"
#967
b100001101000000001110001000 B"
#968
b10110101101101111001001101000 B"
#969
b11110000011111101110110000001101 B"
#970
b11100110001011001011110011101011 B"
#971
b1000001010010000100011011110101 B"
#972
b11001101111000010001010111110 B"
#973
b11000111101100000111100001011 B"
#974
b11010110100000010100000100 B"
#975
b101000010100 "
b11010110100000010100000100 @
b11010000001001110111 ""
b1111110011010000100011011110 B"
#976
b101000010101 "
b1111110011010000100011011110 @
#986
b1100010111010000001011001111 B"
#987
b1110011111000000100100001111 B"
#988
b1011101100100000011001100001 B"
#989
b1011001101110000010101010111 B"
#990
b1010101110000000010010110101 B"
#991
b1011000100000000010000110001 B"
#992
b1011011000110000001100111111 B"
#993
b1110110100110000010110011001 B"
#994
b1111011111100000100101001001 B"
#995
b101000011110 "
b1111011111100000100101001001 @
b11111111011101111111111001110111 ""
b110111100110000010110111001 B"
#996
b101000011111 "
b110111100110000010110111001 @
#1006
b1100100100111111101000000001 B"
#1007
b110101001100010010001111101110 B"
#1008
b10011111111111101101010000100 B"
#1009
b11100100100110101101111001001010 B"
#1010
b11100010100100001111110001101011 B"
#1011
b110100010000101010000010 B"
#1012
b11111110001100110000010101001000 B"
#1013
b11111110110000111111110101111101 B"
#1014
b11111100110011110000011101110101 B"
#1015
b101000101000 "
b11111100110011110000011101110101 @
b1100110001111111101010000 ""
b101101000101111111001011011 B"
#1016
b101000101001 "
b101101000101111111001011011 @
#1026
b110010101011010000010011011011 B"
#1027
b11111000010110110000010101111000 B"
#1028
b11111000011100000000000001000010 B"
#1029
b11111000000010010000010100000101 B"
#1030
b1000001101111111111100111 B"
#1031
b11111101100101110000000111011011 B"
#1032
b110010010000001100010001 B"
#1033
b11111101101100110000001011001001 B"
#1034
b11111110001011110000001001111000 B"
#1035
b101000110010 "
b11111110001011110000001001111000 @
b11111111000110110000000111110100 ""
b11111110010101100000001001111000 B"
#1036
b101000110011 "
b11111110010101100000001001111000 @
#1046
b11111110100101000000001001001000 B"
#1047
b11111110101001110000001001011100 B"
#1048
b11111111101000110000001010100110 B"
#1049
b11111101111010110000001111101111 B"
#1050
b11111001011100010000001111111001 B"
#1051
b11111011101110111111111010010110 B"
#1052
b111110000110000000111001101 B"
#1053
b11010110101000100000011010110011 B"
#1054
b11110000001111100001110101101001 B"
#1055
b101000111100 "
b11110000001111100001110101101001 @
b11111111001110001111110100110011 ""
b1100010001010001000111101001 B"
#1056
b101000111101 "
b1100010001010001000111101001 @
#1066
b10000100100111111111111111011 B"
#1067
b1101101110000001010000011 B"
#1068
b101010000000000100000111 B"
#1069
b101100100010000001111101110 B"
#1070
b11010100011111101110111110 B"
#1071
b1010000100001111101110011110 B"
#1072
b11101110011010000001110011010000 B"
#1073
b11111010000000010000100011001001 B"
#1074
b11111111110001010000011010110001 B"
#1075
b101001000110 "
b11111111110001010000011010110001 @
b10011101010000000100000000 ""
b11111111111100100000000010011000 B"
#1076
b101001000111 "
b11111111111100100000000010011000 @
#1086
b11111111110010100000010111101101 B"
#1087
b111011110000010000011110 B"
#1088
b11111110111010100000010110010000 B"
#1089
b11111111110001000000010000101101 B"
#1090
b10010000010000100000 B"
#1091
b1001000000010000000110 B"
#1092
b10100000000010001010000 B"
#1093
b100100000000010010000011 B"
#1094
b11111111111011010000010111110000 B"
#1095
b101001010000 "
b11111111111011010000010111110000 @
b11111110010111110000000010010000 ""
b11111110111110010000010111010100 B"
#1096
b101001010001 "
b11111110111110010000010111010100 @
#1106
b1011110000001000011101 B"
#1107
b100111101010000010010101000 B"
#1108
b11111010110101100001011000011110 B"
#1109
b10100101100111111011101001000 B"
#1110
b101001100011110100011100011 B"
#1111
b11110111101000011111010001000100 B"
#1112
b11111000111001100000010100001111 B"
#1113
b11111100101000000000000011100000 B"
#1114
b11010000000001000000 B"
#1115
b101001011010 "
b11010000000001000000 @
b111011111110111100101 ""
b11111011010000100000000111010101 B"
#1116
b101001011011 "
b11111011010000100000000111010101 @
#1126
b1110101010000010111011011 B"
#1127
b11011100000001011101011110 B"
#1128
b11111000111101111111010101110010 B"
#1129
b11111101000101011111100101001101 B"
#1130
b11111011000100111111101111110011 B"
#1131
b11111111100011000000000000110101 B"
#1132
b11111101001101011111111001110100 B"
#1133
b11111101001100000000000001100000 B"
#1134
b11111100111000011111111001101100 B"
#1135
b101001100100 "
b11111100111000011111111001101100 @
b1010110010000000101011101 ""
b11111101001100101111111011110111 B"
#1136
b101001100101 "
b11111101001100101111111011110111 @
#1146
b11111101001011001111111100100011 B"
#1147
b11111101001101101111111101001010 B"
#1148
b11111101000000101111111101011010 B"
#1149
b11111100110001011111111111000010 B"
#1150
b11111011100011011111111010011001 B"
#1151
b11111011000101011111110001001100 B"
#1152
b11111110010001101111110110100000 B"
#1153
b11111100001110110000001100111111 B"
#1154
b11101111011010011110100100001000 B"
#1155
b101001101110 "
b11101111011010011110100100001000 @
b11111111000000000000000110010110 ""
b11101100010010100000010100110100 B"
#1156
b101001101111 "
b11101100010010100000010100110100 @
#1166
b11111101110100000001000011110110 B"
#1167
b111101010000000101001110110 B"
