2D_FFT_0_final/.Xil/Vivado-16968-DESKTOP-MFVSKC9/hw_ila_data_2/zip_work/waveform.vcd
$date
        2025-Jan-10 09:55:15
$end
$version
        Vivado v2018.3 (64-bit)
$end
$timescale
        1ps
$end
$scope module dut $end
$var reg 3 " u_FFT_Top/current_state [2:0] $end
$var reg 3 % u_FFT_Top/next_state [2:0] $end
$var reg 4 ( u_FFT_Top/row_count [3:0] $end
$var reg 8 , u_FFT_Top/col_count [7:0] $end
$var reg 8 4 u_FFT_Top/data_count [7:0] $end
$var reg 1 < u_FFT_Top/ram_we $end
$var reg 1 = u_FFT_Top/s_axis_data_tvalid $end
$var reg 1 > u_FFT_Top/s_axis_data_tready $end
$var reg 1 ? u_FFT_Top/fft_256_valid_out $end
$var reg 1 @ u_FFT_Top/fft_256_ready_out $end
$var reg 1 A u_FFT_Top/fft_16_valid_out_1 $end
$var reg 1 B u_FFT_Top/fft_16_ready_in $end
$var reg 1 C _TRIGGER $end
$var reg 1 D _WINDOW $end
$var reg 1 E _GAP $end
$upscope $end
$enddefinitions $end
#0
$dumpvars
b1 "
b1 %
b1111 (
b0 ,
b101001 4
1<
1=
0>
1?
0@
0A
1B
0C
1D
0E
$end
#1
0<
#2
b101010 4
#3
b101011 4
#4
b101100 4
#5
b101101 4
#6
b101110 4
#7
b101111 4
#8
b110000 4
#9
b110001 4
#10
b110010 4
1>
1@
#11
b110011 4
1<
0>
#20
0@
#21
0<
#22
b110100 4
#23
b110101 4
#24
b110110 4
#25
b110111 4
#26
b111000 4
#27
b111001 4
#28
b111010 4
#29
b111011 4
#30
b111100 4
1>
1@
#31
b111101 4
1<
0>
#40
0@
#41
0<
#42
b111110 4
#43
b111111 4
#44
b1000000 4
#45
b1000001 4
#46
b1000010 4
#47
b1000011 4
#48
b1000100 4
#49
b1000101 4
#50
b1000110 4
1>
1@
#51
b1000111 4
1<
0>
#60
0@
#61
0<
#62
b1001000 4
#63
b1001001 4
#64
b1001010 4
#65
b1001011 4
#66
b1001100 4
#67
b1001101 4
#68
b1001110 4
#69
b1001111 4
#70
b1010000 4
1>
1@
#71
b1010001 4
1<
0>
#80
0@
#81
0<
#82
b1010010 4
#83
b1010011 4
#84
b1010100 4
#85
b1010101 4
#86
b1010110 4
#87
b1010111 4
#88
b1011000 4
#89
b1011001 4
#90
b1011010 4
1>
1@
#91
b1011011 4
1<
0>
#100
0@
#101
0<
#102
b1011100 4
#103
b1011101 4
#104
b1011110 4
#105
b1011111 4
#106
b1100000 4
#107
b1100001 4
#108
b1100010 4
#109
b1100011 4
#110
b1100100 4
1>
1@
#111
b1100101 4
1<
0>
#120
0@
#121
0<
#122
b1100110 4
#123
b1100111 4
#124
b1101000 4
#125
b1101001 4
#126
b1101010 4
#127
b1101011 4
#128
b1101100 4
#129
b1101101 4
#130
b1101110 4
1>
1@
#131
b1101111 4
1<
0>
#140
0@
#141
0<
#142
b1110000 4
#143
b1110001 4
#144
b1110010 4
#145
b1110011 4
#146
b1110100 4
#147
b1110101 4
#148
b1110110 4
#149
b1110111 4
#150
b1111000 4
1>
1@
#151
b1111001 4
1<
0>
#160
0@
#161
0<
#162
b1111010 4
#163
b1111011 4
#164
b1111100 4
#165
b1111101 4
#166
b1111110 4
#167
b1111111 4
#168
b10000000 4
#169
b10000001 4
#170
b10000010 4
1>
1@
#171
b10000011 4
1<
0>
#180
0@
#181
0<
#182
b10000100 4
#183
b10000101 4
#184
b10000110 4
#185
b10000111 4
#186
b10001000 4
#187
b10001001 4
#188
b10001010 4
#189
b10001011 4
#190
b10001100 4
1>
1@
#191
b10001101 4
1<
0>
#200
0@
#201
0<
#202
b10001110 4
#203
b10001111 4
#204
b10010000 4
#205
b10010001 4
#206
b10010010 4
#207
b10010011 4
#208
b10010100 4
#209
b10010101 4
#210
b10010110 4
1>
1@
#211
b10010111 4
1<
0>
#220
0@
#221
0<
#222
b10011000 4
#223
b10011001 4
#224
b10011010 4
#225
b10011011 4
#226
b10011100 4
#227
b10011101 4
#228
b10011110 4
#229
b10011111 4
#230
b10100000 4
1>
1@
#231
b10100001 4
1<
0>
#240
0@
#241
0<
#242
b10100010 4
#243
b10100011 4
#244
b10100100 4
#245
b10100101 4
#246
b10100110 4
#247
b10100111 4
#248
b10101000 4
#249
b10101001 4
#250
b10101010 4
1>
1@
#251
b10101011 4
1<
0>
#260
0@
#261
0<
#262
b10101100 4
#263
b10101101 4
#264
b10101110 4
#265
b10101111 4
#266
b10110000 4
#267
b10110001 4
#268
b10110010 4
#269
b10110011 4
#270
b10110100 4
1>
1@
#271
b10110101 4
1<
0>
#280
0@
#281
0<
#282
b10110110 4
#283
b10110111 4
#284
b10111000 4
#285
b10111001 4
#286
b10111010 4
#287
b10111011 4
#288
b10111100 4
#289
b10111101 4
#290
b10111110 4
1>
1@
#291
b10111111 4
1<
0>
#300
0@
#301
0<
#302
b11000000 4
#303
b11000001 4
#304
b11000010 4
#305
b11000011 4
#306
b11000100 4
#307
b11000101 4
#308
b11000110 4
#309
b11000111 4
#310
b11001000 4
1>
1@
#311
b11001001 4
1<
0>
#320
0@
#321
0<
#322
b11001010 4
#323
b11001011 4
#324
b11001100 4
#325
b11001101 4
#326
b11001110 4
#327
b11001111 4
#328
b11010000 4
#329
b11010001 4
#330
b11010010 4
1>
1@
#331
b11010011 4
1<
0>
#340
0@
#341
0<
#342
b11010100 4
#343
b11010101 4
#344
b11010110 4
#345
b11010111 4
#346
b11011000 4
#347
b11011001 4
#348
b11011010 4
#349
b11011011 4
#350
b11011100 4
1>
1@
#351
b11011101 4
1<
0>
#360
0@
#361
0<
#362
b11011110 4
#363
b11011111 4
#364
b11100000 4
#365
b11100001 4
#366
b11100010 4
#367
b11100011 4
#368
b11100100 4
#369
b11100101 4
#370
b11100110 4
1>
1@
#371
b11100111 4
1<
0>
#380
0@
#381
0<
#382
b11101000 4
#383
b11101001 4
#384
b11101010 4
#385
b11101011 4
#386
b11101100 4
#387
b11101101 4
#388
b11101110 4
#389
b11101111 4
#390
b11110000 4
1>
1@
#391
b11110001 4
1<
0>
#400
0@
#401
0<
#402
b11110010 4
#403
b11110011 4
#404
b11110100 4
#405
b11110101 4
#406
b11110110 4
#407
b11110111 4
#408
b11111000 4
#409
b11111001 4
#410
b11111010 4
1>
1@
#411
b11111011 4
1<
0>
#420
0@
#421
0<
#422
b11111100 4
#423
b11111101 4
#424
b11111110 4
#425
b10 %
b11111111 4
#426
b10 "
b0 (
b0 4
#427
b1 4
#428
b10 4
#429
b11 4
#430
b100 4
1@
#431
b101 4
#432
b110 4
#433
b111 4
#434
b1000 4
#435
b1001 4
#436
b1010 4
#437
b1011 4
#438
b1100 4
#439
b1101 4
#440
b1110 4
#441
b1111 4
#442
b1 ,
b0 4
#443
b1 4
#444
b10 4
#445
b11 4
#446
b100 4
#447
b101 4
#448
b110 4
#449
b111 4
#450
b1000 4
#451
b1001 4
#452
b1010 4
#453
b1011 4
#454
b1100 4
#455
b1101 4
#456
b1110 4
0?
#457
b1111 4
#458
b10 ,
b0 4
#459
b1 4
#460
b10 4
#461
b11 4
#462
b100 4
#463
b101 4
#464
b110 4
#465
b111 4
#466
b1000 4
#467
b1001 4
#468
b1010 4
#469
b1011 4
#470
b1100 4
#471
b1101 4
#472
b1110 4
#473
b1111 4
#474
b11 ,
b0 4
#475
b1 4
#476
b10 4
#477
b11 4
#478
b100 4
#479
b101 4
#480
b110 4
#481
b111 4
#482
b1000 4
#483
b1001 4
#484
b1010 4
#485
b1011 4
#486
b1100 4
#487
b1101 4
#488
b1110 4
#489
b1111 4
#490
b100 ,
b0 4
#491
b1 4
#492
b10 4
#493
b11 4
#494
b100 4
#495
b101 4
#496
b110 4
#497
b111 4
#498
b1000 4
#499
b1001 4
#500
b1010 4
#501
b1011 4
#502
b1100 4
#503
b1101 4
#504
b1110 4
#505
b1111 4
#506
b101 ,
b0 4
#507
b1 4
#508
b10 4
#509
b11 4
#510
b100 4
#511
b101 4
#512
b110 4
1A
1C
#513
b111 4
#514
b1000 4
#515
b1001 4
#516
b1010 4
#517
b1011 4
#518
b1100 4
#519
b1101 4
#520
b1110 4
#521
b1111 4
#522
b110 ,
b0 4
#523
b1 4
#524
b10 4
#525
b11 4
#526
b100 4
#527
b101 4
#528
b110 4
#529
b111 4
#530
b1000 4
#531
b1001 4
#532
b1010 4
#533
b1011 4
#534
b1100 4
#535
b1101 4
#536
b1110 4
#537
b1111 4
#538
b111 ,
b0 4
#539
b1 4
#540
b10 4
#541
b11 4
#542
b100 4
#543
b101 4
#544
b110 4
#545
b111 4
#546
b1000 4
#547
b1001 4
#548
b1010 4
#549
b1011 4
#550
b1100 4
#551
b1101 4
#552
b1110 4
#553
b1111 4
#554
b1000 ,
b0 4
#555
b1 4
#556
b10 4
#557
b11 4
#558
b100 4
#559
b101 4
#560
b110 4
#561
b111 4
#562
b1000 4
#563
b1001 4
#564
b1010 4
#565
b1011 4
#566
b1100 4
#567
b1101 4
#568
b1110 4
#569
b1111 4
#570
b1001 ,
b0 4
#571
b1 4
#572
b10 4
#573
b11 4
#574
b100 4
#575
b101 4
#576
b110 4
#577
b111 4
#578
b1000 4
#579
b1001 4
#580
b1010 4
#581
b1011 4
#582
b1100 4
#583
b1101 4
#584
b1110 4
#585
b1111 4
#586
b1010 ,
b0 4
#587
b1 4
#588
b10 4
#589
b11 4
#590
b100 4
#591
b101 4
#592
b110 4
#593
b111 4
#594
b1000 4
#595
b1001 4
#596
b1010 4
#597
b1011 4
#598
b1100 4
#599
b1101 4
#600
b1110 4
#601
b1111 4
#602
b1011 ,
b0 4
#603
b1 4
#604
b10 4
#605
b11 4
#606
b100 4
#607
b101 4
#608
b110 4
#609
b111 4
#610
b1000 4
#611
b1001 4
#612
b1010 4
#613
b1011 4
#614
b1100 4
#615
b1101 4
#616
b1110 4
#617
b1111 4
#618
b1100 ,
b0 4
#619
b1 4
#620
b10 4
#621
b11 4
#622
b100 4
#623
b101 4
#624
b110 4
#625
b111 4
#626
b1000 4
#627
b1001 4
#628
b1010 4
#629
b1011 4
#630
b1100 4
#631
b1101 4
#632
b1110 4
#633
b1111 4
#634
b1101 ,
b0 4
#635
b1 4
#636
b10 4
#637
b11 4
#638
b100 4
#639
b101 4
#640
b110 4
#641
b111 4
#642
b1000 4
#643
b1001 4
#644
b1010 4
#645
b1011 4
#646
b1100 4
#647
b1101 4
#648
b1110 4
#649
b1111 4
#650
b1110 ,
b0 4
#651
b1 4
#652
b10 4
#653
b11 4
#654
b100 4
#655
b101 4
#656
b110 4
#657
b111 4
#658
b1000 4
#659
b1001 4
#660
b1010 4
#661
b1011 4
#662
b1100 4
#663
b1101 4
#664
b1110 4
#665
b1111 4
#666
b1111 ,
b0 4
#667
b1 4
#668
b10 4
#669
b11 4
#670
b100 4
#671
b101 4
#672
b110 4
#673
b111 4
#674
b1000 4
#675
b1001 4
#676
b1010 4
#677
b1011 4
#678
b1100 4
#679
b1101 4
#680
b1110 4
#681
b1111 4
#682
b10000 ,
b0 4
#683
b1 4
#684
b10 4
#685
b11 4
#686
b100 4
#687
b101 4
#688
b110 4
#689
b111 4
#690
b1000 4
#691
b1001 4
#692
b1010 4
#693
b1011 4
#694
b1100 4
#695
b1101 4
#696
b1110 4
#697
b1111 4
#698
b10001 ,
b0 4
#699
b1 4
#700
b10 4
#701
b11 4
#702
b100 4
#703
b101 4
#704
b110 4
#705
b111 4
#706
b1000 4
#707
b1001 4
#708
b1010 4
#709
b1011 4
#710
b1100 4
#711
b1101 4
#712
b1110 4
#713
b1111 4
#714
b10010 ,
b0 4
#715
b1 4
#716
b10 4
#717
b11 4
#718
b100 4
#719
b101 4
#720
b110 4
#721
b111 4
#722
b1000 4
#723
b1001 4
#724
b1010 4
#725
b1011 4
#726
b1100 4
#727
b1101 4
#728
b1110 4
#729
b1111 4
#730
b10011 ,
b0 4
#731
b1 4
#732
b10 4
#733
b11 4
#734
b100 4
#735
b101 4
#736
b110 4
#737
b111 4
#738
b1000 4
#739
b1001 4
#740
b1010 4
#741
b1011 4
#742
b1100 4
#743
b1101 4
#744
b1110 4
#745
b1111 4
#746
b10100 ,
b0 4
#747
b1 4
#748
b10 4
#749
b11 4
#750
b100 4
#751
b101 4
#752
b110 4
#753
b111 4
#754
b1000 4
#755
b1001 4
#756
b1010 4
#757
b1011 4
#758
b1100 4
#759
b1101 4
#760
b1110 4
#761
b1111 4
#762
b10101 ,
b0 4
#763
b1 4
#764
b10 4
#765
b11 4
#766
b100 4
#767
b101 4
#768
b110 4
#769
b111 4
#770
b1000 4
#771
b1001 4
#772
b1010 4
#773
b1011 4
#774
b1100 4
#775
b1101 4
#776
b1110 4
#777
b1111 4
#778
b10110 ,
b0 4
#779
b1 4
#780
b10 4
#781
b11 4
#782
b100 4
#783
b101 4
#784
b110 4
#785
b111 4
#786
b1000 4
#787
b1001 4
#788
b1010 4
#789
b1011 4
#790
b1100 4
#791
b1101 4
#792
b1110 4
#793
b1111 4
#794
b10111 ,
b0 4
#795
b1 4
#796
b10 4
#797
b11 4
#798
b100 4
#799
b101 4
#800
b110 4
#801
b111 4
#802
b1000 4
#803
b1001 4
#804
b1010 4
#805
b1011 4
#806
b1100 4
#807
b1101 4
#808
b1110 4
#809
b1111 4
#810
b11000 ,
b0 4
#811
b1 4
#812
b10 4
#813
b11 4
#814
b100 4
#815
b101 4
#816
b110 4
#817
b111 4
#818
b1000 4
#819
b1001 4
#820
b1010 4
#821
b1011 4
#822
b1100 4
#823
b1101 4
#824
b1110 4
#825
b1111 4
#826
b11001 ,
b0 4
#827
b1 4
#828
b10 4
#829
b11 4
#830
b100 4
#831
b101 4
#832
b110 4
#833
b111 4
#834
b1000 4
#835
b1001 4
#836
b1010 4
#837
b1011 4
#838
b1100 4
#839
b1101 4
#840
b1110 4
#841
b1111 4
#842
b11010 ,
b0 4
#843
b1 4
#844
b10 4
#845
b11 4
#846
b100 4
#847
b101 4
#848
b110 4
#849
b111 4
#850
b1000 4
#851
b1001 4
#852
b1010 4
#853
b1011 4
#854
b1100 4
#855
b1101 4
#856
b1110 4
#857
b1111 4
#858
b11011 ,
b0 4
#859
b1 4
#860
b10 4
#861
b11 4
#862
b100 4
#863
b101 4
#864
b110 4
#865
b111 4
#866
b1000 4
#867
b1001 4
#868
b1010 4
#869
b1011 4
#870
b1100 4
#871
b1101 4
#872
b1110 4
#873
b1111 4
#874
b11100 ,
b0 4
#875
b1 4
#876
b10 4
#877
b11 4
#878
b100 4
#879
b101 4
#880
b110 4
#881
b111 4
#882
b1000 4
#883
b1001 4
#884
b1010 4
#885
b1011 4
#886
b1100 4
#887
b1101 4
#888
b1110 4
#889
b1111 4
#890
b11101 ,
b0 4
#891
b1 4
#892
b10 4
#893
b11 4
#894
b100 4
#895
b101 4
#896
b110 4
#897
b111 4
#898
b1000 4
#899
b1001 4
#900
b1010 4
#901
b1011 4
#902
b1100 4
#903
b1101 4
#904
b1110 4
#905
b1111 4
#906
b11110 ,
b0 4
#907
b1 4
#908
b10 4
#909
b11 4
#910
b100 4
#911
b101 4
#912
b110 4
#913
b111 4
#914
b1000 4
#915
b1001 4
#916
b1010 4
#917
b1011 4
#918
b1100 4
#919
b1101 4
#920
b1110 4
#921
b1111 4
#922
b11111 ,
b0 4
#923
b1 4
#924
b10 4
#925
b11 4
#926
b100 4
#927
b101 4
#928
b110 4
#929
b111 4
#930
b1000 4
#931
b1001 4
#932
b1010 4
#933
b1011 4
#934
b1100 4
#935
b1101 4
#936
b1110 4
#937
b1111 4
#938
b100000 ,
b0 4
#939
b1 4
#940
b10 4
#941
b11 4
#942
b100 4
#943
b101 4
#944
b110 4
#945
b111 4
#946
b1000 4
#947
b1001 4
#948
b1010 4
#949
b1011 4
#950
b1100 4
#951
b1101 4
#952
b1110 4
#953
b1111 4
#954
b100001 ,
b0 4
#955
b1 4
#956
b10 4
#957
b11 4
#958
b100 4
#959
b101 4
#960
b110 4
#961
b111 4
#962
b1000 4
#963
b1001 4
#964
b1010 4
#965
b1011 4
#966
b1100 4
#967
b1101 4
#968
b1110 4
#969
b1111 4
#970
b100010 ,
b0 4
#971
b1 4
#972
b10 4
#973
b11 4
#974
b100 4
#975
b101 4
#976
b110 4
#977
b111 4
#978
b1000 4
#979
b1001 4
#980
b1010 4
#981
b1011 4
#982
b1100 4
#983
b1101 4
#984
b1110 4
#985
b1111 4
#986
b100011 ,
b0 4
#987
b1 4
#988
b10 4
#989
b11 4
#990
b100 4
#991
b101 4
#992
b110 4
#993
b111 4
#994
b1000 4
#995
b1001 4
#996
b1010 4
#997
b1011 4
#998
b1100 4
#999
b1101 4
#1000
b1110 4
#1001
b1111 4
#1002
b100100 ,
b0 4
#1003
b1 4
#1004
b10 4
#1005
b11 4
#1006
b100 4
#1007
b101 4
#1008
b110 4
#1009
b111 4
#1010
b1000 4
#1011
b1001 4
#1012
b1010 4
#1013
b1011 4
#1014
b1100 4
#1015
b1101 4
#1016
b1110 4
#1017
b1111 4
#1018
b100101 ,
b0 4
#1019
b1 4
#1020
b10 4
#1021
b11 4
#1022
b100 4
#1023
b101 4
