2D_FFT_0_final/.Xil/Vivado-352-DESKTOP-MFVSKC9/hw_ila_data_1/zip_work/waveform.vcd
$date
        2025-Apr-27 14:30:30
$end
$version
        Vivado v2018.3 (64-bit)
$end
$timescale
        1ps
$end
$scope module dut $end
$var reg 32 " top_i/system_ila_0/inst/net_slot_0_axis_tdata [31:0] $end
$var reg 1 B top_i/system_ila_0/inst/net_slot_0_axis_tvalid $end
$var reg 1 C top_i/system_ila_0/inst/net_slot_0_axis_tready $end
$var reg 1 D top_i/system_ila_0/inst/net_slot_0_axis_tlast $end
$var reg 32 E top_i/system_ila_0/inst/net_slot_1_axis_tdata [31:0] $end
$var reg 1 e top_i/system_ila_0/inst/net_slot_1_axis_tvalid $end
$var reg 1 f top_i/system_ila_0/inst/net_slot_1_axis_tready $end
$var reg 1 g top_i/system_ila_0/inst/net_slot_1_axis_tlast $end
$var reg 32 h top_i/system_ila_0/inst/net_slot_2_axis_tdata [31:0] $end
$var reg 4 *" top_i/system_ila_0/inst/net_slot_2_axis_tkeep [3:0] $end
$var reg 1 ." top_i/system_ila_0/inst/net_slot_2_axis_tvalid $end
$var reg 1 /" top_i/system_ila_0/inst/net_slot_2_axis_tready $end
$var reg 1 0" top_i/system_ila_0/inst/net_slot_2_axis_tlast $end
$var reg 32 1" top_i/system_ila_0/inst/net_slot_3_axis_tdata [31:0] $end
$var reg 4 Q" top_i/system_ila_0/inst/net_slot_3_axis_tkeep [3:0] $end
$var reg 1 U" top_i/system_ila_0/inst/net_slot_3_axis_tvalid $end
$var reg 1 V" top_i/system_ila_0/inst/net_slot_3_axis_tready $end
$var reg 1 W" top_i/system_ila_0/inst/net_slot_3_axis_tlast $end
$var reg 3 X" Interface__i1_s0___axis_data_fifo_1_M_AXIS_ [2:0] $end
$var reg 3 [" Interface__i1_s1___axis_data_fifo_0_M_AXIS_ [2:0] $end
$var reg 3 ^" Interface__i1_s2___S_AXIS_0_1_ [2:0] $end
$var reg 3 a" Interface__i1_s3___axi_dma_0_M_AXIS_MM2S_ [2:0] $end
$var reg 3 d" T_Channel__i1_s0___axis_data_fifo_1_M_AXIS_ [2:0] $end
$var reg 3 g" T_Channel__i1_s1___axis_data_fifo_0_M_AXIS_ [2:0] $end
$var reg 3 j" T_Channel__i1_s2___S_AXIS_0_1_ [2:0] $end
$var reg 3 m" T_Channel__i1_s3___axi_dma_0_M_AXIS_MM2S_ [2:0] $end
$var reg 1 p" _TRIGGER $end
$var reg 1 q" _WINDOW $end
$var reg 1 r" _GAP $end
$upscope $end
$enddefinitions $end
#0
$dumpvars
b0 "
0B
1C
0D
b11111101111001001111111000110000 E
0e
0f
1g
b11001011110100100010010100000 h
b1111 *"
1."
1/"
00"
b0 1"
b0 Q"
0U"
1V"
0W"
b0 X"
b11 ["
b0 ^"
b11 a"
b0 d"
b11 g"
b0 j"
b11 m"
1p"
1q"
0r"
$end
#1
b0 h
0."
#3
b11001011110100100010010100000 "
1B
b1 X"
b1 d"
#4
0B
b11111101010110001111111000100101 h
1."
b0 X"
b1 ^"
b0 d"
b1 j"
#5
b11111100101001101111111010111101 h
#6
b0 h
0."
b0 ^"
b0 j"
#7
b11111101010110001111111000100101 "
1B
b1 X"
b1 d"
#8
b11111100101001101111111010111101 "
#9
0B
b11111101001000001111111101111010 h
1."
b0 X"
b1 ^"
b0 d"
b1 j"
#10
b11111101000111111111110101101101 h
#11
b0 h
0."
b0 ^"
b0 j"
#12
b11111101001000001111111101111010 "
1B
b1 X"
b1 d"
#13
b11111101000111111111110101101101 "
#14
0B
b100111110000000000000100 h
1."
b0 X"
b1 ^"
b0 d"
b1 j"
#15
b11111111001110001111111111110011 h
#16
b1000100001111111100100010 h
#17
b100111110000000000000100 "
1B
b0 h
b1 X"
b1 d"
#18
b11111111001110001111111111110011 "
b10111101111111101111001 h
#19
b1000100001111111100100010 "
b100001101111111010011101 h
#20
b0 "
b10110101111111000010100 h
#21
b10111101111111101111001 "
b0 h
0."
b0 ^"
b0 j"
#22
b100001101111111010011101 "
#23
b10110101111111000010100 "
#24
0B
b10100100111111110100011111 h
1."
b0 X"
b1 ^"
b0 d"
b1 j"
#25
b11111111111110110000000011101110 h
#26
b0 h
0."
b0 ^"
b0 j"
#27
b10100100111111110100011111 "
1B
b1 X"
b1 d"
#28
b11111111111110110000000011101110 "
#29
0B
b1000001111111000011111 h
1."
b0 X"
b1 ^"
b0 d"
b1 j"
#30
b100010101100000010101011000 h
#31
b11001011110100100010010100000 h
0."
b0 ^"
b0 j"
#32
b1000001111111000011111 "
1B
b1 X"
b1 d"
#33
b100010101100000010101011000 "
#34
0B
b0 X"
b0 d"
#40
b1001001110001001010011001101000 h
1."
b1 ^"
b1 j"
#41
b11111101010110001111111000100101 h
0."
b0 ^"
b0 j"
#43
b1001001110001001010011001101000 "
1B
b1 X"
b1 d"
#44
0B
b11110110000000110110001 h
1."
b0 X"
b1 ^"
b0 d"
b1 j"
#45
b11111111111000001111100101111001 h
#46
b11111101001000001111111101111010 h
0."
b0 ^"
b0 j"
#47
b11110110000000110110001 "
1B
b1 X"
b1 d"
#48
b11111111111000001111100101111001 "
#49
0B
b10100101111111001100011 h
1."
b0 X"
b1 ^"
b0 d"
b1 j"
#50
b1000000101111111111011010 h
#51
b100111110000000000000100 h
0."
b0 ^"
b0 j"
#52
b10100101111111001100011 "
1B
b1 X"
b1 d"
#53
b1000000101111111111011010 "
#54
0B
b11111110110001001111111001111100 h
1."
b0 X"
b1 ^"
b0 d"
b1 j"
#55
b11111110111010110000000011010110 h
#56
b1000110010000000000111010 h
#57
b11111110110001001111111001111100 "
1B
b0 h
b1 X"
b1 d"
#58
b11111110111010110000000011010110 "
b11111111101010010000000000011001 h
#59
b1000110010000000000111010 "
b10101101001111111111110011 h
#60
b0 "
b1000101000000000000110111 h
#61
b11111111101010010000000000011001 "
b10100100111111110100011111 h
0."
b0 ^"
b0 j"
#62
b10101101001111111111110011 "
#63
b1000101000000000000110111 "
#64
0B
b1001100000000100000010 h
1."
b0 X"
b1 ^"
b0 d"
b1 j"
#65
b10010001001111111000100110 h
#66
b1000001111111000011111 h
0."
b0 ^"
b0 j"
#67
b1001100000000100000010 "
1B
b1 X"
b1 d"
#68
b10010001001111111000100110 "
#69
0B
b11111101111111011111110101100010 h
1."
b0 X"
b1 ^"
b0 d"
b1 j"
#70
b11111110110111010000010110001000 h
#71
b1001001110001001010011001101000 h
0."
b0 ^"
b0 j"
#72
b11111101111111011111110101100010 "
1B
b1 X"
b1 d"
#73
b11111110110111010000010110001000 "
#74
0B
b0 X"
b0 d"
#80
b1011100111100100111000001010010 h
1."
b1 ^"
b1 j"
#81
b11110110000000110110001 h
0."
b0 ^"
b0 j"
#83
b1011100111100100111000001010010 "
1B
b1 X"
b1 d"
#84
0B
b11101000111111111111111101 h
1."
b0 X"
b1 ^"
b0 d"
b1 j"
#85
b11111111000111011111110111010111 h
#86
b10100101111111001100011 h
0."
b0 ^"
b0 j"
#87
b11101000111111111111111101 "
1B
b1 X"
b1 d"
#88
b11111111000111011111110111010111 "
#89
0B
b11111011111111011111110110111101 h
1."
b0 X"
b1 ^"
b0 d"
b1 j"
#90
b11111011000001101111111010100000 h
#91
b11111110110001001111111001111100 h
0."
b0 ^"
b0 j"
#92
b11111011111111011111110110111101 "
1B
b1 X"
b1 d"
#93
b11111011000001101111111010100000 "
#94
0B
b11111111100111000000000010010110 h
1."
b0 X"
b1 ^"
b0 d"
b1 j"
#95
b11111110010011111111111101000011 h
#96
b1001101010000000000100111 h
#97
b11111111100111000000000010010110 "
1B
b0 h
b1 X"
b1 d"
#98
b11111110010011111111111101000011 "
b10000000010111001 h
#99
b1001101010000000000100111 "
b111001011111111110100011 h
#100
b0 "
b1100000111111110101010011 h
#101
b10000000010111001 "
b1001100000000100000010 h
0."
b0 ^"
b0 j"
#102
b111001011111111110100011 "
#103
b1100000111111110101010011 "
#104
0B
b1011000001111101100000110 h
1."
b0 X"
b1 ^"
b0 d"
b1 j"
#105
b11111111001000001111111101101100 h
#106
b11111101111111011111110101100010 h
0."
b0 ^"
b0 j"
#107
b1011000001111101100000110 "
1B
b1 X"
b1 d"
#108
b11111111001000001111111101101100 "
#109
0B
b1110001111111101111101011 h
1."
b0 X"
b1 ^"
b0 d"
b1 j"
#110
b11111111001110110000011000010001 h
#111
b1011100111100100111000001010010 h
0."
b0 ^"
b0 j"
#112
b1110001111111101111101011 "
1B
b1 X"
b1 d"
#113
b11111111001110110000011000010001 "
#114
0B
b0 X"
b0 d"
#120
b10101101110011100011001011110000 h
1."
b1 ^"
b1 j"
#121
b11101000111111111111111101 h
0."
b0 ^"
b0 j"
#123
b10101101110011100011001011110000 "
1B
b1 X"
b1 d"
#124
0B
b11111110101101101111110110110110 h
1."
b0 X"
b1 ^"
b0 d"
b1 j"
#125
b11111101010011001111110000111100 h
#126
b11111011111111011111110110111101 h
0."
b0 ^"
b0 j"
#127
b11111110101101101111110110110110 "
1B
b1 X"
b1 d"
#128
b11111101010011001111110000111100 "
#129
0B
b11111011000011101111100001010010 h
1."
b0 X"
b1 ^"
b0 d"
b1 j"
#130
b11111110011100011111111000001111 h
#131
b11111111100111000000000010010110 h
0."
b0 ^"
b0 j"
#132
b11111011000011101111100001010010 "
1B
b1 X"
b1 d"
#133
b11111110011100011111111000001111 "
#134
0B
b10000111111110101010111 h
1."
b0 X"
b1 ^"
b0 d"
b1 j"
#135
b1010000010011100101 h
#136
b11111111100000101111111110010010 h
#137
b10000111111110101010111 "
1B
b0 h
b1 X"
b1 d"
#138
b1010000010011100101 "
b11101001111111110111110 h
#139
b11111111100000101111111110010010 "
b1100100001111111011100010 h
#140
b0 "
b101001000101111110010110010 h
#141
b11101001111111110111110 "
b1011000001111101100000110 h
0."
b0 ^"
b0 j"
#142
b1100100001111111011100010 "
#143
b101001000101111110010110010 "
#144
0B
b1111100011111111001110001 h
1."
b0 X"
b1 ^"
b0 d"
b1 j"
#145
b11111110110000000001100101 h
#146
b1110001111111101111101011 h
0."
b0 ^"
b0 j"
#147
b1111100011111111001110001 "
1B
b1 X"
b1 d"
#148
b11111110110000000001100101 "
#149
0B
b11110100001011110000000000001101 h
1."
b0 X"
b1 ^"
b0 d"
b1 j"
#150
b10001001101111110110001010 h
#151
b10101101110011100011001011110000 h
0."
b0 ^"
b0 j"
#152
b11110100001011110000000000001101 "
1B
b1 X"
b1 d"
#153
b10001001101111110110001010 "
#154
0B
b0 X"
b0 d"
#160
b10110111001001100000110111101010 h
1."
b1 ^"
b1 j"
#161
b11111110101101101111110110110110 h
0."
b0 ^"
b0 j"
#163
b10110111001001100000110111101010 "
1B
b1 X"
b1 d"
#164
0B
b11111111110101000000000000011001 h
1."
b0 X"
b1 ^"
b0 d"
b1 j"
#165
b11111111010001011111101011111011 h
#166
b11111011000011101111100001010010 h
0."
b0 ^"
b0 j"
#167
b11111111110101000000000000011001 "
1B
b1 X"
b1 d"
#168
b11111111010001011111101011111011 "
#169
0B
b11111111111111001111101010000101 h
1."
b0 X"
b1 ^"
b0 d"
b1 j"
#170
b10111010001111101101110010 h
#171
b10000111111110101010111 h
0."
b0 ^"
b0 j"
#172
b11111111111111001111101010000101 "
1B
b1 X"
b1 d"
#173
b10111010001111101101110010 "
#174
0B
b1011001011111111011110010 h
1."
b0 X"
b1 ^"
b0 d"
b1 j"
#175
b11111111110001011111111010110011 h
#176
b1110000100000000011110101 h
#177
b1011001011111111011110010 "
1B
b0 h
b1 X"
b1 d"
#178
b11111111110001011111111010110011 "
b11111111111111001111111111110111 h
#179
b1110000100000000011110101 "
b10000101011111111110110011 h
#180
b0 "
b11101010001111111111111101 h
#181
b11111111111111001111111111110111 "
b1111100011111111001110001 h
0."
b0 ^"
b0 j"
#182
b10000101011111111110110011 "
#183
b11101010001111111111111101 "
#184
0B
b100100011100000001011101000 h
1."
b0 X"
b1 ^"
b0 d"
b1 j"
#185
b1100100110000001000010110 h
#186
b11110100001011110000000000001101 h
0."
b0 ^"
b0 j"
#187
b100100011100000001011101000 "
1B
b1 X"
b1 d"
#188
b1100100110000001000010110 "
#189
0B
b11001001011111111101110011 h
1."
b0 X"
b1 ^"
b0 d"
b1 j"
#190
b11111011001100100000100011011001 h
#191
b10110111001001100000110111101010 h
0."
b0 ^"
b0 j"
#192
b11001001011111111101110011 "
1B
b1 X"
b1 d"
#193
b11111011001100100000100011011001 "
#194
0B
b0 X"
b0 d"
#200
b10111001011100000001001100011010 h
1."
b1 ^"
b1 j"
#201
b11111111110101000000000000011001 h
0."
b0 ^"
b0 j"
#203
b10111001011100000001001100011010 "
1B
b1 X"
b1 d"
#204
0B
b11101011101111110000100100001100 h
1."
b0 X"
b1 ^"
b0 d"
b1 j"
#205
b11000111001111111100001101 h
#206
b11111111111111001111101010000101 h
0."
b0 ^"
b0 j"
#207
b11101011101111110000100100001100 "
1B
b1 X"
b1 d"
#208
b11000111001111111100001101 "
#209
0B
b1101101111100001100110 h
1."
b0 X"
b1 ^"
b0 d"
b1 j"
#210
b10000000000110001 h
#211
b1011001011111111011110010 h
0."
b0 ^"
b0 j"
#212
b1101101111100001100110 "
1B
b1 X"
b1 d"
#213
b10000000000110001 "
#214
0B
b11111110010110011111110000101110 h
1."
b0 X"
b1 ^"
b0 d"
b1 j"
#215
b11111101001101101111111011000001 h
#216
b101101100000000001010010 h
#217
b11111110010110011111110000101110 "
1B
b0 h
b1 X"
b1 d"
#218
b11111101001101101111111011000001 "
b11111110001100111111101111111000 h
#219
b101101100000000001010010 "
b11001000000000101001001 h
#220
b0 "
b101000101000000000000100100 h
#221
b11111110001100111111101111111000 "
b100100011100000001011101000 h
0."
b0 ^"
b0 j"
#222
b11001000000000101001001 "
#223
b101000101000000000000100100 "
#224
0B
b11111111110011110000000000000001 h
1."
b0 X"
b1 ^"
b0 d"
b1 j"
#225
b101101110011111110110000110 h
#226
b11001001011111111101110011 h
0."
b0 ^"
b0 j"
#227
b11111111110011110000000000000001 "
1B
b1 X"
b1 d"
#228
b101101110011111110110000110 "
#229
0B
b11000000101111100101000101 h
1."
b0 X"
b1 ^"
b0 d"
b1 j"
#230
b11111110011001000000001110010100 h
#231
b10111001011100000001001100011010 h
0."
b0 ^"
b0 j"
#232
b11000000101111100101000101 "
1B
b1 X"
b1 d"
#233
b11111110011001000000001110010100 "
#234
0B
b0 X"
b0 d"
#240
b10110100010110101111100110100010 h
1."
b1 ^"
b1 j"
#241
b11101011101111110000100100001100 h
0."
b0 ^"
b0 j"
#243
b10110100010110101111100110100010 "
1B
b1 X"
b1 d"
#244
0B
b11111101010011111111100101101011 h
1."
b0 X"
b1 ^"
b0 d"
b1 j"
#245
b11111001001100001111011010001100 h
#246
b1101101111100001100110 h
0."
b0 ^"
b0 j"
#247
b11111101010011111111100101101011 "
1B
b1 X"
b1 d"
#248
b11111001001100001111011010001100 "
#249
0B
b11110011011011111111110000010100 h
1."
b0 X"
b1 ^"
b0 d"
b1 j"
#250
b11111101101000100000000001011000 h
#251
b11111110010110011111110000101110 h
0."
b0 ^"
b0 j"
#252
b11110011011011111111110000010100 "
1B
b1 X"
b1 d"
#253
b11111101101000100000000001011000 "
#254
0B
b11111101101001011111100100100011 h
1."
b0 X"
b1 ^"
b0 d"
b1 j"
#255
b1111000101111111000110110 h
#256
b11111111100100001111111101101111 h
#257
b11111101101001011111100100100011 "
1B
b0 h
b1 X"
b1 d"
#258
b1111000101111111000110110 "
b1010011111111111101110111 h
#259
b11111111100100001111111101101111 "
b11111010101111110100101110 h
#260
b0 "
b10100111111111011110011010 h
#261
b1010011111111111101110111 "
b11111111110011110000000000000001 h
0."
b0 ^"
b0 j"
#262
b11111010101111110100101110 "
#263
b10100111111111011110011010 "
#264
0B
b11111111101010001111110110100010 h
1."
b0 X"
b1 ^"
b0 d"
b1 j"
#265
b1010010001011111110001111011 h
#266
b11000000101111100101000101 h
0."
b0 ^"
b0 j"
#267
b11111111101010001111110110100010 "
1B
b1 X"
b1 d"
#268
b1010010001011111110001111011 "
#269
0B
b100010100000000010010001100 h
1."
b0 X"
b1 ^"
b0 d"
b1 j"
#270
b10110110101111110111001011 h
#271
b10110100010110101111100110100010 h
0."
b0 ^"
b0 j"
#272
b100010100000000010010001100 "
1B
b1 X"
b1 d"
#273
b10110110101111110111001011 "
#274
0B
b0 X"
b0 d"
#280
b111010011001101110100110001010 h
1."
b1 ^"
b1 j"
#281
b11111101010011111111100101101011 h
0."
b0 ^"
b0 j"
#283
b111010011001101110100110001010 "
1B
b1 X"
b1 d"
#284
0B
b1011000110000110101000000 h
1."
b0 X"
b1 ^"
b0 d"
b1 j"
#285
b100011100001111011111111011 h
#286
b11110011011011111111110000010100 h
0."
b0 ^"
b0 j"
#287
b1011000110000110101000000 "
1B
b1 X"
b1 d"
#288
b100011100001111011111111011 "
#289
0B
b11001101000000000000111110 h
1."
b0 X"
b1 ^"
b0 d"
b1 j"
#290
b1111110000000011110000110 h
#291
b11111101101001011111100100100011 h
0."
b0 ^"
b0 j"
#292
b11001101000000000000111110 "
1B
b1 X"
b1 d"
#293
b1111110000000011110000110 "
#294
0B
b101101111110000000111010000 h
1."
b0 X"
b1 ^"
b0 d"
b1 j"
#295
b11111111111110110000000101100010 h
#296
b100011110100000001000100010 h
#297
b101101111110000000111010000 "
1B
b0 h
b1 X"
b1 d"
#298
b11111111111110110000000101100010 "
b11111101010111010000000001000110 h
#299
b100011110100000001000100010 "
b11010100100000000111010111 h
#300
b0 "
b11111111110101100000001000100100 h
#301
b11111101010111010000000001000110 "
b11111111101010001111110110100010 h
0."
b0 ^"
b0 j"
#302
b11010100100000000111010111 "
#303
b11111111110101100000001000100100 "
#304
0B
b11111000011110100000000111111000 h
1."
b0 X"
b1 ^"
b0 d"
b1 j"
#305
b11111101010010010000100010011010 h
#306
b100010100000000010010001100 h
0."
b0 ^"
b0 j"
#307
b11111000011110100000000111111000 "
1B
b1 X"
b1 d"
#308
b11111101010010010000100010011010 "
#309
0B
b11111100101010111111111111110100 h
1."
b0 X"
b1 ^"
b0 d"
b1 j"
#310
b11110101010001000001011001111100 h
#311
b111010011001101110100110001010 h
0."
b0 ^"
b0 j"
#312
b11111100101010111111111111110100 "
1B
b1 X"
b1 d"
#313
b11110101010001000001011001111100 "
#314
0B
b0 X"
b0 d"
#320
b11011101000110000101000010100010 h
1."
b1 ^"
b1 j"
#321
b1011000110000110101000000 h
0."
b0 ^"
b0 j"
#323
b11011101000110000101000010100010 "
1B
b1 X"
b1 d"
#324
0B
b1010010001011111011111100111 h
1."
b0 X"
b1 ^"
b0 d"
b1 j"
#325
b1011111111011100111001 h
#326
b11001101000000000000111110 h
0."
b0 ^"
b0 j"
#327
b1010010001011111011111100111 "
1B
b1 X"
b1 d"
#328
b1011111111011100111001 "
#329
0B
b11111011011001110000010011110000 h
1."
b0 X"
b1 ^"
b0 d"
b1 j"
#330
b101001011111111011010000111 h
#331
b101101111110000000111010000 h
0."
b0 ^"
b0 j"
#332
b11111011011001110000010011110000 "
1B
b1 X"
b1 d"
#333
b101001011111111011010000111 "
#334
0B
b110100100011111111010101011 h
1."
b0 X"
b1 ^"
b0 d"
b1 j"
#335
b11111100111101100000000101000010 h
#336
b1001111111010110001 h
#337
b110100100011111111010101011 "
1B
b0 h
b1 X"
b1 d"
#338
b11111100111101100000000101000010 "
b1100111010000001000001011 h
#339
b1001111111010110001 "
b11101000110000000000010011 h
#340
b0 "
b11111100101100111111110011101110 h
#341
b1100111010000001000001011 "
b11111000011110100000000111111000 h
0."
b0 ^"
b0 j"
#342
b11101000110000000000010011 "
#343
b11111100101100111111110011101110 "
#344
0B
b1001011110010000010100101111 h
1."
b0 X"
b1 ^"
b0 d"
b1 j"
#345
b1111111010000100111010011 h
#346
b11111100101010111111111111110100 h
0."
b0 ^"
b0 j"
#347
b1001011110010000010100101111 "
1B
b1 X"
b1 d"
#348
b1111111010000100111010011 "
#349
0B
b11111100111110001111100010101010 h
1."
b0 X"
b1 ^"
b0 d"
b1 j"
#350
b110100100100000000000010001 h
#351
b11011101000110000101000010100010 h
0."
b0 ^"
b0 j"
#352
b11111100111110001111100010101010 "
1B
b1 X"
b1 d"
#353
b110100100100000000000010001 "
#354
0B
b0 X"
b0 d"
#360
b11011101100110001110100101101110 h
1."
b1 ^"
b1 j"
#361
b1010010001011111011111100111 h
0."
b0 ^"
b0 j"
#363
b11011101100110001110100101101110 "
1B
b1 X"
b1 d"
#364
0B
b10110110011111100000100111 h
1."
b0 X"
b1 ^"
b0 d"
b1 j"
#365
b1001000100000000101000011 h
#366
b11111011011001110000010011110000 h
0."
b0 ^"
b0 j"
#367
b10110110011111100000100111 "
1B
b1 X"
b1 d"
#368
b1001000100000000101000011 "
#369
0B
b101111010111111011110010010 h
1."
b0 X"
b1 ^"
b0 d"
b1 j"
#370
b11111000111001111111101101100011 h
#371
b110100100011111111010101011 h
0."
b0 ^"
b0 j"
#372
b101111010111111011110010010 "
1B
b1 X"
b1 d"
#373
b11111000111001111111101101100011 "
#374
0B
b11111110001101110000010011100101 h
1."
b0 X"
b1 ^"
b0 d"
b1 j"
#375
b11111110000011001111110011101101 h
#376
b11111111011011101111111000110001 h
#377
b11111110001101110000010011100101 "
1B
b0 h
b1 X"
b1 d"
#378
b11111110000011001111110011101101 "
b1100011110000000010010001 h
#379
b11111111011011101111111000110001 "
b11111111011110100000000001110111 h
#380
b0 "
b101101000110000001111110100 h
#381
b1100011110000000010010001 "
b1001011110010000010100101111 h
0."
b0 ^"
b0 j"
#382
b11111111011110100000000001110111 "
#383
b101101000110000001111110100 "
#384
0B
b100100111011111100011100111 h
1."
b0 X"
b1 ^"
b0 d"
b1 j"
#385
b11111000101011011111110101010011 h
#386
b11111100111110001111100010101010 h
0."
b0 ^"
b0 j"
#387
b100100111011111100011100111 "
1B
b1 X"
b1 d"
#388
b11111000101011011111110101010011 "
#389
0B
b111011011001111101101001001 h
1."
b0 X"
b1 ^"
b0 d"
b1 j"
#390
b1001000110001111110100100001 h
#391
b11011101100110001110100101101110 h
0."
b0 ^"
b0 j"
#392
b111011011001111101101001001 "
1B
b1 X"
b1 d"
#393
b1001000110001111110100100001 "
#394
0B
b0 X"
b0 d"
#400
b10111100110100001100011110111100 h
1."
b1 ^"
b1 j"
#401
b10110110011111100000100111 h
0."
b0 ^"
b0 j"
#403
b10111100110100001100011110111100 "
1B
b1 X"
b1 d"
#404
0B
b11110110000011001111010010001011 h
1."
b0 X"
b1 ^"
b0 d"
b1 j"
#405
b11111010111111010101111000 h
#406
b101111010111111011110010010 h
0."
b0 ^"
b0 j"
#407
b11110110000011001111010010001011 "
1B
b1 X"
b1 d"
#408
b11111010111111010101111000 "
#409
0B
b1101010000000000010110010000 h
1."
b0 X"
b1 ^"
b0 d"
b1 j"
#410
b11111001100001101111011110000110 h
#411
b11111110001101110000010011100101 h
0."
b0 ^"
b0 j"
#412
b1101010000000000010110010000 "
1B
b1 X"
b1 d"
#413
b11111001100001101111011110000110 "
#414
0B
b11111000110001011111111000001010 h
1."
b0 X"
b1 ^"
b0 d"
b1 j"
#415
b1101111001111111111100001 h
#416
b10101011111111111100001 h
#417
b11111000110001011111111000001010 "
1B
b0 h
b1 X"
b1 d"
#418
b1101111001111111111100001 "
b10010010001111111000000101 h
#419
b10101011111111111100001 "
b100010111010000000110100000 h
#420
b0 "
b11111100010010000000100011011010 h
#421
b10010010001111111000000101 "
b100100111011111100011100111 h
0."
b0 ^"
b0 j"
#422
b100010111010000000110100000 "
#423
b11111100010010000000100011011010 "
#424
0B
b1000011110101111100110000110 h
1."
b0 X"
b1 ^"
b0 d"
b1 j"
#425
b10111011111111010100101110 h
#426
b111011011001111101101001001 h
0."
b0 ^"
b0 j"
#427
b1000011110101111100110000110 "
1B
b1 X"
b1 d"
#428
b10111011111111010100101110 "
#429
0B
b10011000000010000101111 h
1."
b0 X"
b1 ^"
b0 d"
b1 j"
#430
b100110110000000110101101 h
#431
b10111100110100001100011110111100 h
0."
b0 ^"
b0 j"
#432
b10011000000010000101111 "
1B
b1 X"
b1 d"
#433
b100110110000000110101101 "
#434
0B
b0 X"
b0 d"
#440
b11101111110011000100111011000110 h
1."
b1 ^"
b1 j"
#441
b11110110000011001111010010001011 h
0."
b0 ^"
b0 j"
#443
b11101111110011000100111011000110 "
1B
b1 X"
b1 d"
#444
0B
b11111110011011000000111001100110 h
1."
b0 X"
b1 ^"
b0 d"
b1 j"
#445
b11111110110100101111101011000001 h
#446
b1101010000000000010110010000 h
0."
b0 ^"
b0 j"
#447
b11111110011011000000111001100110 "
1B
b1 X"
b1 d"
#448
b11111110110100101111101011000001 "
#449
0B
b11111000010011011111100010000000 h
1."
b0 X"
b1 ^"
b0 d"
b1 j"
#450
b11110010001101110000000101010011 h
#451
b11111000110001011111111000001010 h
0."
b0 ^"
b0 j"
#452
b11111000010011011111100010000000 "
1B
b1 X"
b1 d"
#453
b11110010001101110000000101010011 "
#454
0B
b101110100100000010101010000 h
1."
b0 X"
b1 ^"
b0 d"
b1 j"
#455
b11111010111000001111111101011101 h
#456
b10001010000000000110100011 h
#457
b101110100100000010101010000 "
1B
b0 h
b1 X"
b1 d"
#458
b11111010111000001111111101011101 "
b11111101001000101111111110110000 h
#459
b10001010000000000110100011 "
b10001011001111111110000011 h
#460
b0 "
b101000000111111101011011100 h
#461
b11111101001000101111111110110000 "
b1000011110101111100110000110 h
0."
b0 ^"
b0 j"
#462
b10001011001111111110000011 "
#463
b101000000111111101011011100 "
#464
0B
b11111110101011011111001000110111 h
1."
b0 X"
b1 ^"
b0 d"
b1 j"
#465
b11111000000011000000100010110110 h
#466
b10011000000010000101111 h
0."
b0 ^"
b0 j"
#467
b11111110101011011111001000110111 "
1B
b1 X"
b1 d"
#468
b11111000000011000000100010110110 "
#469
0B
b1100010101111001110011111 h
1."
b0 X"
b1 ^"
b0 d"
b1 j"
#470
b11110111110001000000101011010101 h
#471
b11101111110011000100111011000110 h
0."
b0 ^"
b0 j"
#472
b1100010101111001110011111 "
1B
b1 X"
b1 d"
#473
b11110111110001000000101011010101 "
#474
0B
b0 X"
b0 d"
#480
b10100110011001101011101111000100 h
1."
b1 ^"
b1 j"
#481
b11111110011011000000111001100110 h
0."
b0 ^"
b0 j"
#483
b10100110011001101011101111000100 "
1B
b1 X"
b1 d"
#484
0B
b10110110000010000000111 h
1."
b0 X"
b1 ^"
b0 d"
b1 j"
#485
b11101110001111010110110100 h
#486
b11111000010011011111100010000000 h
0."
b0 ^"
b0 j"
#487
b10110110000010000000111 "
1B
b1 X"
b1 d"
#488
b11101110001111010110110100 "
#489
0B
b11110100011001110000110110101011 h
1."
b0 X"
b1 ^"
b0 d"
b1 j"
#490
b101001100111111011001001001 h
#491
b101110100100000010101010000 h
0."
b0 ^"
b0 j"
#492
b11110100011001110000110110101011 "
1B
b1 X"
b1 d"
#493
b101001100111111011001001001 "
#494
0B
b100010001101111101100001010 h
1."
b0 X"
b1 ^"
b0 d"
b1 j"
#495
b11111011010011111111100100111111 h
#496
b100001010110000000100111111 h
#497
b100010001101111101100001010 "
1B
b0 h
b1 X"
b1 d"
#498
b11111011010011111111100100111111 "
b11111111001100110000000000010001 h
#499
b100001010110000000100111111 "
b100010001000000000110001010 h
#500
b0 "
b11110110110111111111100000111111 h
#501
b11111111001100110000000000010001 "
b11111110101011011111001000110111 h
0."
b0 ^"
b0 j"
#502
b100010001000000000110001010 "
#503
b11110110110111111111100000111111 "
#504
0B
b1001101101110000010100110011 h
1."
b0 X"
b1 ^"
b0 d"
b1 j"
#505
b111011011000000011001100110 h
#506
b1100010101111001110011111 h
0."
b0 ^"
b0 j"
#507
b1001101101110000010100110011 "
1B
b1 X"
b1 d"
#508
b111011011000000011001100110 "
#509
0B
b10000010011011111010010101011 h
1."
b0 X"
b1 ^"
b0 d"
b1 j"
#510
b11111001101101110001010011110111 h
#511
b10100110011001101011101111000100 h
0."
b0 ^"
b0 j"
#512
b10000010011011111010010101011 "
1B
b1 X"
b1 d"
#513
b11111001101101110001010011110111 "
#514
0B
b0 X"
b0 d"
#520
b10110110001000011100000011010 h
1."
b1 ^"
b1 j"
#521
b10110110000010000000111 h
0."
b0 ^"
b0 j"
#523
b10110110001000011100000011010 "
1B
b1 X"
b1 d"
#524
0B
b1100010010010001010111110100 h
1."
b0 X"
b1 ^"
b0 d"
b1 j"
#525
b110101010000000001110000001 h
#526
b11110100011001110000110110101011 h
0."
b0 ^"
b0 j"
#527
b1100010010010001010111110100 "
1B
b1 X"
b1 d"
#528
b110101010000000001110000001 "
#529
0B
b11110111101101010000001011010100 h
1."
b0 X"
b1 ^"
b0 d"
b1 j"
#530
b110110011110000001001001111 h
#531
b100010001101111101100001010 h
0."
b0 ^"
b0 j"
#532
b11110111101101010000001011010100 "
1B
b1 X"
b1 d"
#533
b110110011110000001001001111 "
#534
0B
b110001101111111001111110000 h
1."
b0 X"
b1 ^"
b0 d"
b1 j"
#535
b11100011001111110010010111 h
#536
b11100000001111111011101011 h
#537
b110001101111111001111110000 "
1B
b0 h
b1 X"
b1 d"
#538
b11100011001111110010010111 "
b11111011101000110000001001110010 h
#539
b11100000001111111011101011 "
b11111110100011000000001011000001 h
#540
b0 "
b11111110000111011111101001110110 h
#541
b11111011101000110000001001110010 "
b1001101101110000010100110011 h
0."
b0 ^"
b0 j"
#542
b11111110100011000000001011000001 "
#543
b11111110000111011111101001110110 "
#544
0B
b11111101101100010000011011001111 h
1."
b0 X"
b1 ^"
b0 d"
b1 j"
#545
b10010000011010000100101001110 h
#546
b10000010011011111010010101011 h
0."
b0 ^"
b0 j"
#547
b11111101101100010000011011001111 "
1B
b1 X"
b1 d"
#548
b10010000011010000100101001110 "
