2D_FFT_0_final/.Xil/Vivado-16968-DESKTOP-MFVSKC9/hw_ila_data_1/zip_work/waveform.vcd
$date
        2025-Jan-10 09:55:14
$end
$version
        Vivado v2018.3 (64-bit)
$end
$timescale
        1ps
$end
$scope module dut $end
$var reg 32 " top_i/system_ila_0/inst/probe0_1 [31:0] $end
$var reg 32 B top_i/system_ila_0/inst/probe1_1 [31:0] $end
$var reg 1 b top_i/system_ila_0/inst/probe2_1 $end
$var reg 1 c top_i/system_ila_0/inst/probe3_1 $end
$var reg 32 d top_i/system_ila_0/inst/net_slot_0_axis_tdata [31:0] $end
$var reg 1 &" top_i/system_ila_0/inst/net_slot_0_axis_tvalid $end
$var reg 1 '" top_i/system_ila_0/inst/net_slot_0_axis_tready $end
$var reg 1 (" top_i/system_ila_0/inst/net_slot_0_axis_tlast $end
$var reg 32 )" top_i/system_ila_0/inst/net_slot_1_axis_tdata [31:0] $end
$var reg 4 I" top_i/system_ila_0/inst/net_slot_1_axis_tkeep [3:0] $end
$var reg 1 M" top_i/system_ila_0/inst/net_slot_1_axis_tvalid $end
$var reg 1 N" top_i/system_ila_0/inst/net_slot_1_axis_tready $end
$var reg 1 O" top_i/system_ila_0/inst/net_slot_1_axis_tlast $end
$var reg 3 P" Interface__i1_s0___axis_data_fifo_0_M_AXIS_ [2:0] $end
$var reg 3 S" Interface__i1_s1___axi_dma_0_M_AXIS_MM2S_ [2:0] $end
$var reg 3 V" T_Channel__i1_s0___axis_data_fifo_0_M_AXIS_ [2:0] $end
$var reg 3 Y" T_Channel__i1_s1___axi_dma_0_M_AXIS_MM2S_ [2:0] $end
$var reg 1 \" _TRIGGER $end
$var reg 1 ]" _WINDOW $end
$var reg 1 ^" _GAP $end
$upscope $end
$enddefinitions $end
#0
$dumpvars
b0 "
b0 B
0b
0c
b0 d
0&"
0'"
0("
b0 )"
b0 I"
0M"
1N"
0O"
b0 P"
b0 S"
b0 V"
b0 Y"
0\"
1]"
0^"
$end
#512
b11111111110000100000000100101011 )"
b1111 I"
1M"
b1 S"
b1 Y"
1\"
#513
b101110000000000001010011 )"
#514
b1 "
b11111111111101011111110111011111 )"
#515
b10 "
b10 B
b11111111110000100000000100101011 d
1&"
b11111110101100000000000100010001 )"
#516
b11 "
b11 B
1'"
b10011000000000010000111 )"
b1 P"
b1 V"
#517
b100 "
b100 B
b101110000000000001010011 d
b110011111111111000011011 )"
#518
b11111111111101011111110111011111 d
b11111110001011101111111111010100 )"
#519
b11111110101100000000000100010001 d
b1111100111111111110100000 )"
#520
b10011000000000010000111 d
b11111111001100100000000101000100 )"
#521
b110011111111111000011011 d
b11111110001110000000000000011011 )"
#522
b11111110001011101111111111010100 d
b1111101111110110110011 )"
#523
b1111100111111111110100000 d
b101011000000000010110101 )"
#524
b11111111001100100000000101000100 d
b1010111111111101101111 )"
#525
b11111110001110000000000000011011 d
b10001111111010000001 )"
#526
b1111101111110110110011 d
b11111111111001000000000100110101 )"
#527
b101011000000000010110101 d
b100000010000000000111011 )"
#528
b1010111111111101101111 d
b1001000001111111000001101 )"
#529
b10001111111010000001 d
b11111101111110100000000101011111 )"
#530
b11111111111001000000000100110101 d
b10111111 )"
#531
b100000010000000000111011 d
b11101111110011011110 )"
#532
b1001000001111111000001101 d
b1000100100000000101010001 )"
#533
b11111101111110100000000101011111 d
b11111111111001111111111111000111 )"
#534
b10111111 d
b11110111111111010011100 )"
#535
b11101111110011011110 d
b11110010000001000101110 )"
#536
b1000100100000000101010001 d
b11111111111001100000000101110011 )"
#537
b11111111111001111111111111000111 d
b11111110010111001111110100010000 )"
#538
b11110111111111010011100 d
b10111010000000101110001 )"
#539
b11110010000001000101110 d
b10000001111111110111001 )"
#540
b11111111111001100000000101110011 d
b11111111010000001111110101000001 )"
#541
b11111110010111001111110100010000 d
b10000101000000001011001011 )"
#542
b10111010000000101110001 d
b11111110110101001111111111000110 )"
#543
b10000001111111110111001 d
b11111110110001111111111000100100 )"
#544
b11111111010000001111110101000001 d
b100001010000001010001101 )"
#545
b10000101000000001011001011 d
b11111111000111001111111011010111 )"
#546
b11111110110101001111111111000110 d
b1111111110110100101 )"
#547
b11111110110001111111111000100100 d
b110111110000001000011111 )"
#548
b100001010000001010001101 d
b11111110111111111111110111000110 )"
#549
b11111111000111001111111011010111 d
b1001011110000000100011100 )"
#550
b1111111110110100101 d
b11111111011110000000000010010111 )"
#551
b110111110000001000011111 d
b11111110111101001111110000100111 )"
#552
b11111110111111111111110111000110 d
b101101110000001100001110 )"
#553
b1001011110000000100011100 d
b11111110110010001111111100001100 )"
#554
b11111111011110000000000010010111 d
b1010101001111110101000000 )"
#555
b11111110111101001111110000100111 d
b10110100000001111100000 )"
#556
b101101110000001100001110 d
b11111110011111001111111000001011 )"
#557
b11111110110010001111111100001100 d
b1101011101111110111010001 )"
#558
b1010101001111110101000000 d
b11111111011000010000001111010101 )"
#559
b10110100000001111100000 d
b11111110110111001111110011011001 )"
#560
b11111110011111001111111000001011 d
b1000010011111111011010111 )"
#561
b1101011101111110111010001 d
b1101000000001000011111 )"
#562
b11111111011000010000001111010101 d
b11111111000001011111111011011100 )"
#563
b11111110110111001111110011011001 d
b11011011111111110000111 )"
#564
b1000010011111111011010111 d
b1110100000000000011010011 )"
#565
b1101000000001000011111 d
b11111111000110011111111100100000 )"
#566
b11111111000001011111111011011100 d
b11111110011000101111111100110101 )"
#567
b11011011111111110000111 d
b10010000010000000001001110 )"
#568
b1110100000000000011010011 d
b11111111011100111111111101010010 )"
#569
b11111111000110011111111100100000 d
b11111110101101010000000100000011 )"
#570
b11111110011000101111111100110101 d
b111100101111111010011010 )"
#571
b10010000010000000001001110 d
b110110001111111101000011 )"
#572
b11111111011100111111111101010010 d
b11111111111110110000001001110110 )"
#573
b11111110101101010000000100000011 d
b100011101111111010010001 )"
#574
b111100101111111010011010 d
b11111110111101101111111100101101 )"
#575
b110110001111111101000011 d
b11111111110111000000000101111110 )"
#576
b11111111111110110000001001110110 d
b11111111110101111111111010000011 )"
#577
b100011101111111010010001 d
b11111111100000111111111100001010 )"
#578
b11111110111101101111111100101101 d
b10000000110000001000000110 )"
#579
b11111111110111000000000101111110 d
b11111111100101011111111100110100 )"
#580
b11111111110101111111111010000011 d
b11111101001110001111111001110010 )"
#581
b11111111100000111111111100001010 d
b10111111100000000010111110 )"
#582
b10000000110000001000000110 d
b11111111111110100000000001100101 )"
#583
b11111111100101011111111100110100 d
b11111101111001101111111001101110 )"
#584
b11111101001110001111111001110010 d
b1001110010000000000110101 )"
#585
b10111111100000000010111110 d
b111111111111110010 )"
#586
b11111111111110100000000001100101 d
b11111111001111111111111111011011 )"
#587
b11111101111001101111111001101110 d
b10001101000000000001000101 )"
#588
b1001110010000000000110101 d
b11111111100101111111111111011100 )"
#589
b111111111111110010 d
b11111101110101100000000000001001 )"
#590
b11111111001111111111111111011011 d
b1110100001111111100101100 )"
#591
b10001101000000000001000101 d
b11000001111111011000000 )"
#592
b11111111100101111111111111011100 d
b11111111110111000000000110101010 )"
#593
b11111101110101100000000000001001 d
b11111110111111010000000000011111 )"
#594
b1110100001111111100101100 d
b10000001111111001011011 )"
#595
b11000001111111011000000 d
b101011010000000001001100 )"
#596
b11111111110111000000000110101010 d
b100110010000000010000110 )"
#597
b11111110111111010000000000011111 d
b11111110110111101111111011000101 )"
#598
b10000001111111001011011 d
b101110101111111110000010 )"
#599
b101011010000000001001100 d
b11011010000000100111110 )"
#600
b100110010000000010000110 d
b11111110010101101111111100011101 )"
#601
b11111110110111101111111011000101 d
b10011111111111111100000110 )"
#602
b101110101111111110000010 d
b11111111000110000000000011000011 )"
#603
b11011010000000100111110 d
b11111110100001011111111110100111 )"
#604
b11111110010101101111111100011101 d
b10110100101111111101100001 )"
#605
b10011111111111111100000110 d
b11111111000001100000000010010011 )"
#606
b11111111000110000000000011000011 d
b11111111011101001111111011101011 )"
#607
b11111110100001011111111110100111 d
b10111011010000000000000101 )"
#608
b10110100101111111101100001 d
b11111101110110100000000101011011 )"
#609
b11111111000001100000000010010011 d
b11111111001110111111111100111110 )"
#610
b11111111011101001111111011101011 d
b10110000111111111101111001 )"
#611
b10111011010000000000000101 d
b11111110001001101111111111101110 )"
#612
b11111101110110100000000101011011 d
b10001010000000010011110 )"
#613
b11111111001110111111111100111110 d
b1110111101111111110100001 )"
#614
b10110000111111111101111001 d
b11111110011110000000000100110010 )"
#615
b11111110001001101111111111101110 d
b11111110110001111111111101111100 )"
#616
b10001010000000010011110 d
b1100101101111111001110011 )"
#617
b1110111101111111110100001 d
b11111111100001001111111110101001 )"
#618
b11111110011110000000000100110010 d
b11111111110011110000001001011101 )"
#619
b11111110110001111111111101111100 d
b11111111101110111111111001110011 )"
#620
b1100101101111111001110011 d
b1011101001111111100101001 )"
#621
b11111111100001001111111110101001 d
b11111111001010100000000111011111 )"
#622
b11111111110011110000001001011101 d
b11111111000101101111110101101101 )"
#623
b11111111101110111111111001110011 d
b10011100010000000100000010 )"
#624
b1011101001111111100101001 d
b11111110100011010000000001101100 )"
#625
b11111111001010100000000111011111 d
b1000001111110110110101 )"
#626
b11111111000101101111110101101101 d
b1010110110000000101011011 )"
#627
b10011100010000000100000010 d
b11111111001011010000000110011111 )"
#628
b11111110100011010000000001101100 d
b1000101111110001111100 )"
#629
b1000001111110110110101 d
b1000101010000001000101110 )"
#630
b1010110110000000101011011 d
b11111111001011101111111101000100 )"
#631
b11111111001011010000000110011111 d
b111000111111111101101000 )"
#632
b1000101111110001111100 d
b11111111011100100000000101111011 )"
#633
b1000101010000001000101110 d
b10001101111111000001111 )"
#634
b11111111001011101111111101000100 d
b10001100000000000110100001 )"
#635
b111000111111111101101000 d
b11111101100101110000000100000000 )"
#636
b11111111011100100000000101111011 d
b11111111111100001111110110010010 )"
#637
b10001101111111000001111 d
b1111101110000000101011101 )"
#638
b10001100000000000110100001 d
b11111110010011111111111111011001 )"
#639
b11111101100101110000000100000000 d
b100110011111110101011100 )"
#640
b11111111111100001111110110010010 d
b1011110000001110110101 )"
#641
b1111101110000000101011101 d
b11111111010111111111111000111010 )"
#642
b11111110010011111111111111011001 d
b1110010101111111001111000 )"
#643
b100110011111110101011100 d
b11111111100101110000001100001100 )"
#644
b1011110000001110110101 d
b11111111010000011111110111010000 )"
#645
b11111111010111111111111000111010 d
b1011001101111111111011110 )"
#646
b1110010101111111001111000 d
b11111110111110000000000101010001 )"
#647
b11111111100101110000001100001100 d
b111001111111111100101100 )"
#648
b11111111010000011111110111010000 d
b101001101111111101010010 )"
#649
b1011001101111111111011110 d
b11111101111001100000001000001001 )"
#650
b11111110111110000000000101010001 d
b1110111001111110011100000 )"
#651
b111001111111111100101100 d
b110101100000001000001001 )"
#652
b101001101111111101010010 d
b11111110101110100000000100100000 )"
#653
b11111101111001100000001000001001 d
b110111111110101101001 )"
#654
b1110111001111110011100000 d
b101000000000000001101100 )"
#655
b110101100000001000001001 d
b11111111101010110000000011101110 )"
#656
b11111110101110100000000100100000 d
b101111011111111010000100 )"
#657
b110111111110101101001 d
b1010100010000000000100001 )"
#658
b101000000000000001101100 d
b11111110010111000000001001111011 )"
#659
b11111111101010110000000011101110 d
b11111111111101111111110111011011 )"
#660
b101111011111111010000100 d
b111110010000000010001011 )"
#661
b1010100010000000000100001 d
b110010101111111111011100 )"
#662
b11111110010111000000001001111011 d
b11111110100010001111111101010010 )"
#663
b11111111111101111111110111011011 d
b1000000000000000011101100 )"
#664
b111110010000000010001011 d
b1001101111111111011001010 )"
#665
b110010101111111111011100 d
b11111111101111100000000010011111 )"
#666
b11111110100010001111111101010010 d
b11111110011111010000001001110010 )"
#667
b1000000000000000011101100 d
b1000101001111110100011110 )"
#668
b1001101111111111011001010 d
b10010000000000010100101 )"
#669
b11111111101111100000000010011111 d
b11111110010110010000001010100110 )"
#670
b11111110011111010000001001110010 d
b10011011001111101110001011 )"
#671
b1000101001111110100011110 d
b100110000000000110110010 )"
#672
b10010000000000010100101 d
b11111110010100010000001011100111 )"
#673
b11111110010110010000001010100110 d
b11111111110000001111110001111001 )"
#674
b10011011001111101110001011 d
b1110001100000000101001100 )"
#675
b100110000000000110110010 d
b11111110100110110000001000111101 )"
#676
b11111110010100010000001011100111 d
b11111110101010111111110001000111 )"
#677
b11111111110000001111110001111001 d
b10010001001111111111010010 )"
#678
b1110001100000000101001100 d
b1011000100000001101100011 )"
#679
b11111110100110110000001000111101 d
b11111101010010111111110110000010 )"
#680
b11111110101010111111110001000111 d
b111001111111111110001010 )"
#681
b10010001001111111111010010 d
b1011100010000001011011001 )"
#682
b1011000100000001101100011 d
b11111100001010001111110100101010 )"
#683
b11111101010010111111110110000010 d
b11011011111111111011100110 )"
#684
b111001111111111110001010 d
b1010100110000001100000100 )"
#685
b1011100010000001011011001 d
b11111101110010001111111000000111 )"
#686
b11111100001010001111110100101010 d
b1110100101111111101011101 )"
#687
b11011011111111111011100110 d
b1110001110000001100010010 )"
#688
b1010100110000001100000100 d
b11111100010001001111111010110011 )"
#689
b11111101110010001111111000000111 d
b1011000111111111010011100 )"
#690
b1110100101111111101011101 d
b10001001000000000011010001 )"
#691
b1110001110000001100010010 d
b11111101101110100000000000100111 )"
#692
b11111100010001001111111010110011 d
b10010000010000000010000001 )"
#693
b1011000111111111010011100 d
b110101101111111111111011 )"
#694
b10001001000000000011010001 d
b11111111010001100000000101101001 )"
#695
b11111101101110100000000000100111 d
b11111110101100111111111101111000 )"
#696
b10010000010000000010000001 d
b11101101111111010101001 )"
#697
b110101101111111111111011 d
b1000010000000000010100010 )"
#698
b11111111010001100000000101101001 d
b10101100000000101001010 )"
#699
b11111110101100111111111101111000 d
b11111110110101101111110111110000 )"
#700
b11101101111111010101001 d
b1011001000000001001010111 )"
#701
b1000010000000000010100010 d
b11111111111110010000000010111111 )"
#702
b10101100000000101001010 d
b11111101101110001111111000100001 )"
#703
b11111110110101101111110111110000 d
b1100011010000000001011100 )"
#704
b1011001000000001001010111 d
b1010000011111111100010111 )"
#705
b11111111111110010000000010111111 d
b11111110010011010000000010001101 )"
#706
b11111101101110001111111000100001 d
b1011101110000000010000100 )"
#707
b1100011010000000001011100 d
b110101100000000010010100 )"
#708
b1010000011111111100010111 d
b11111100101001001111111010110001 )"
#709
b11111110010011010000000010001101 d
b1100010101111111111001110 )"
#710
b1011101110000000010000100 d
b11001111100000000000100100 )"
#711
b110101100000000010010100 d
b11111100010111000000000111010010 )"
#712
b11111100101001001111111010110001 d
b110001111111110111100011 )"
#713
b1100010101111111111001110 d
b10110100011111111101111011 )"
#714
b11001111100000000000100100 d
b11111101011010100000001011101100 )"
#715
b11111100010111000000000111010010 d
b100111111111111000111100 )"
#716
b110001111111110111100011 d
b10111001110000000001000111 )"
#717
b10110100011111111101111011 d
b11111101000010100000000100100100 )"
#718
b11111101011010100000001011101100 d
b100000011111111010110001 )"
#719
b100111111111111000111100 d
b11001110001111111101000010 )"
#720
b10111001110000000001000111 d
b11111101101101100000001110001000 )"
#721
b11111101000010100000000100100100 d
b11111111100101111111111011111111 )"
#722
b100000011111111010110001 d
b101001011111111000110101 )"
#723
b11001110001111111101000010 d
b10101110000000110100010 )"
#724
b11111101101101100000001110001000 d
b111000000000010000111 )"
#725
b11111111100101111111111011111111 d
b110011111111111101110 )"
#726
b101001011111111000110101 d
b100001001111111111000010 )"
#727
b10101110000000110100010 d
b11111111000100100000000011000001 )"
#728
b111000000000010000111 d
b11111111110010011111111110001101 )"
#729
b110011111111111101110 d
b11111111111101011111111001100010 )"
#730
b100001001111111111000010 d
b11010000000000000001111101 )"
#731
b11111111000100100000000011000001 d
b11111101101001110000001100000001 )"
#732
b11111111110010011111111110001101 d
b11111111101100101111110101000001 )"
#733
b11111111111101011111111001100010 d
b10100011000000000011111001 )"
#734
b11010000000000000001111101 d
b11111101110001000000001011100011 )"
#735
b11111101101001110000001100000001 d
b11111111110100101111110000011010 )"
#736
b11111111101100101111110101000001 d
b1111101100000000110101100 )"
#737
b10100011000000000011111001 d
b11111101010111110000000111111110 )"
#738
b11111101110001000000001011100011 d
b100111011111110010000010 )"
#739
b11111111110100101111110000011010 d
b11111101110000000100101010 )"
#740
b1111101100000000110101100 d
b11111100011011000000001100101001 )"
#741
b11111101010111110000000111111110 d
b100111001111110100111011 )"
#742
b100111011111110010000010 d
b101101010000000000011111 )"
#743
b11111101110000000100101010 d
b11111111000110100000000110011001 )"
#744
b11111100011011000000001100101001 d
b10000001111110101110011 )"
#745
b100111001111110100111011 d
b1110100100000000100100010 )"
#746
b101101010000000000011111 d
b11111101100110000000000110100001 )"
#747
b11111111000110100000000110011001 d
b1011100011111111010001000 )"
#748
b10000001111110101110011 d
b1000010000000000010100010 )"
#749
b1110100100000000100100010 d
b11111110001100100000000001010001 )"
#750
b11111101100110000000000110100001 d
b10000111001111111011111111 )"
#751
b1011100011111111010001000 d
b11111110011110000000000101001101 )"
#752
b1000010000000000010100010 d
b100011111111111111100110 )"
#753
b11111110001100100000000001010001 d
b1101100001111111110010100 )"
#754
b10000111001111111011111111 d
b11111110111011000000001000100011 )"
#755
b11111110011110000000000101001101 d
b11111110111011101111111000110010 )"
#756
b100011111111111111100110 d
b10001001110000000011110001 )"
#757
b1101100001111111110010100 d
b11111110011000110000000011101101 )"
#758
b11111110111011000000001000100011 d
b11111111110110011111111001000111 )"
#759
b11111110111011101111111000110010 d
b10000010000000000011010001 )"
#760
b10001001110000000011110001 d
b11111110111000110000000100011111 )"
#761
b11111110011000110000000011101101 d
b11111111110110001111111100101110 )"
#762
b11111111110110011111111001000111 d
b101010110000000101111100 )"
#763
b10000010000000000011010001 d
b11111111100011010000000011011000 )"
#764
b11111110111000110000000100011111 d
b11111110001010001111110001100000 )"
#765
b11111111110110001111111100101110 d
b11100110100000001000000100 )"
#766
b101010110000000101111100 d
b11111111010010000000001010111010 )"
#767
b11111111100011010000000011011000 d
b11111101110011111111110111100101 )"
#768
b11111110001010001111110001100000 d
b11111111100100100000000101011010 )"
#769
b11100110100000001000000100 d
b101110010000000001011110 )"
#770
b11111111010010000000001010111010 d
b11111111111111011111110111011010 )"
#771
b11111101110011111111110111100101 d
b11111110011010010000000100111000 )"
#772
b11111111100100100000000101011010 d
b10010010000000001000010 )"
#773
b101110010000000001011110 d
b111111111111111000111000 )"
#774
b11111111111111011111110111011010 d
b11111110001110111111111111001101 )"
#775
b11111110011010010000000100111000 d
b10000001101111111101010110 )"
#776
b10010010000000001000010 d
b11111111001100010000000101001010 )"
#777
b111111111111111000111000 d
b11111110000101110000000001000000 )"
#778
b11111110001110111111111111001101 d
b11100011111110111000111 )"
#779
b10000001101111111101010110 d
b100000110000000011010111 )"
#780
b11111111001100010000000101001010 d
b101111111111101100001 )"
#781
b11111110000101110000000001000000 d
b1110101111111000110110 )"
#782
b11100011111110111000111 d
b11111111101011010000000100010010 )"
#783
b100000110000000011010111 d
b1111010000000001010011 )"
#784
b101111111111101100001 d
b1011111001111111001000010 )"
#785
b1110101111111000110110 d
b11111110000001110000000101001100 )"
#786
b11111111101011010000000100010010 d
b11111111111101000000000010101000 )"
#787
b1111010000000001010011 d
b10110011111110100011011 )"
#788
b1011111001111111001000010 d
b110001110000000101000011 )"
#789
b11111110000001110000000101001100 d
b1111111110110001 )"
#790
b11111111111101000000000010101000 d
b11000001111111001000111 )"
#791
b10110011111110100011011 d
b10100110000000111111111 )"
#792
b110001110000000101000011 d
b10100000000101110000 )"
#793
b1111111110110001 d
b11111110001001011111110110001100 )"
#794
b11000001111111001000111 d
b10010010000000101001000 )"
#795
b10100110000000111111111 d
b11100111111111110100001 )"
#796
b10100000000101110000 d
b11111110111101011111110110010101 )"
#797
b11111110001001011111110110001100 d
b10010000110000001010100011 )"
#798
b10010010000000101001000 d
b11111110110111011111111111000010 )"
#799
b11100111111111110100001 d
b11111110101001011111111001010100 )"
#800
b11111110111101011111110110010101 d
b110001110000001000110101 )"
#801
b10010000110000001010100011 d
b11111111000100101111111011011001 )"
#802
b11111110110111011111111111000010 d
b11111111100110001111110111010000 )"
#803
b11111110101001011111111001010100 d
b1000001100000001000000100 )"
#804
b110001110000001000110101 d
b11111111001101011111110111000100 )"
#805
b11111111000100101111111011011001 d
b110011100000000100110100 )"
#806
b11111111100110001111110111010000 d
b11111111100010110000000010011001 )"
#807
b1000001100000001000000100 d
b11111111000111011111110000111111 )"
#808
b11111111001101011111110111000100 d
b100111100000001100101110 )"
#809
b110011100000000100110100 d
b11111110101000111111111011011111 )"
#810
b11111111100010110000000010011001 d
b1101010101111110100110111 )"
#811
b11111111000111011111110000111111 d
b11111111111100100000001110111111 )"
#812
b100111100000001100101110 d
b11111110110001011111110110111011 )"
#813
b11111110101000111111111011011111 d
b1111001111111110111010100 )"
#814
b1101010101111110100110111 d
b11111111001110000000001111011110 )"
#815
b11111111111100100000001110111111 d
b11111110111001111111110011001111 )"
#816
b11111110110001011111110110111011 d
b1001000111111111010101110 )"
#817
b1111001111111110111010100 d
b11100110000001000100100 )"
#818
b11111111001110000000001111011110 d
b11111111000111011111111100101011 )"
#819
b11111110111001111111110011001111 d
b101011111111110111010 )"
#820
b1001000111111111010101110 d
b1100011010000000010001000 )"
#821
b11100110000001000100100 d
b11111111001001101111111101000011 )"
#822
b11111111000111011111111100101011 d
b11111110011010111111111110011110 )"
#823
b101011111111110111010 d
b10010101010000000000101100 )"
#824
b1100011010000000010001000 d
b11111111010110001111111101000011 )"
#825
b11111111001001101111111101000011 d
b11111110011111110000000100010111 )"
#826
b11111110011010111111111110011110 d
b1000110011111111000111110 )"
#827
b10010101010000000000101100 d
b1000000101111111100001010 )"
#828
b11111111010110001111111101000011 d
b1010000001011010101 )"
#829
b11111110011111110000000100010111 d
b100011111111111010000110 )"
#830
b1000110011111111000111110 d
b11111110111111011111111011100010 )"
#831
b1000000101111111100001010 d
b11111111101011110000000101111001 )"
#832
b1010000001011010101 d
b1111111010101011 )"
#833
b100011111111111010000110 d
b11111111100110001111111011100000 )"
#834
b11111110111111011111111011100010 d
b1101000110000001001000000 )"
#835
b11111111101011110000000101111001 d
b11111111111001111111111011111110 )"
#836
b1111111010101011 d
b11111101011000111111111010011011 )"
#837
b11111111100110001111111011100000 d
b11010010000000000010111011 )"
#838
b1101000110000001001000000 d
b11111111111101000000000001101110 )"
#839
b11111111111001111111111011111110 d
b11111101101110011111111000110110 )"
#840
b11111101011000111111111010011011 d
b1000011010000000001011100 )"
#841
b11010010000000000010111011 d
b11111111111011110000000000000000 )"
#842
b11111111111101000000000001101110 d
b11111111011111001111111111101101 )"
#843
b11111101101110011111111000110110 d
b10000011110000000010001101 )"
#844
b1000011010000000001011100 d
b11111111101001011111111111001001 )"
#845
b11111111111011110000000000000000 d
b11111101111101011111111110100000 )"
#846
b11111111011111001111111111101101 d
b1110011011111111101110011 )"
#847
b10000011110000000010001101 d
b11001111111111010100010 )"
#848
b11111111101001011111111111001001 d
b11111111101011000000000110101010 )"
#849
b11111101111101011111111110100000 d
b11111111000001101111111111100001 )"
#850
b1110011011111111101110011 d
b1000011111111001101111 )"
#851
b11001111111111010100010 d
b101110100000000001110001 )"
#852
b11111111101011000000000110101010 d
b10110110000000010011011 )"
#853
b11111111000001101111111111100001 d
b11111111001111101111111011011001 )"
#854
b1000011111111001101111 d
b11010001111111100111111 )"
#855
b101110100000000001110001 d
b110010100000000101011011 )"
#856
b10110110000000010011011 d
b11111110010110001111111100010011 )"
#857
b11111111001111101111111011011001 d
b10101000011111111100100110 )"
#858
b11010001111111100111111 d
b11111110111000010000000011101001 )"
#859
b110010100000000101011011 d
b11111110100101001111111110001011 )"
#860
b11111110010110001111111100010011 d
b10111101101111111101101100 )"
#861
b10101000011111111100100110 d
b11111111000001010000000010010111 )"
#862
b11111110111000010000000011101001 d
b11111111011011111111111100010101 )"
#863
b11111110100101001111111110001011 d
b10101100111111111111101000 )"
#864
b10111101101111111101101100 d
b11111101111010110000000101110000 )"
#865
b11111111000001010000000010010111 d
b11111111010110001111111101011000 )"
#866
b11111111011011111111111100010101 d
b10010101011111111100101111 )"
#867
b10101100111111111111101000 d
b11111110001101000000000000011010 )"
#868
b11111101111010110000000101110000 d
b1010000000000010101010 )"
#869
b11111111010110001111111101011000 d
b1111110011111111111010010 )"
#870
b10010101011111111100101111 d
b11111110011001010000000011000101 )"
#871
b11111110001101000000000000011010 d
b11111110111010001111111101011101 )"
#872
b1010000000000010101010 d
b1110010001111111001111111 )"
#873
b1111110011111111111010010 d
b11111111011011111111111110110011 )"
#874
b11111110011001010000000011000101 d
b11111111111011100000001000101111 )"
#875
b11111110111010001111111101011101 d
b11111111100100111111111010000101 )"
#876
b1110010001111111001111111 d
b1001110111111111100110111 )"
#877
b11111111011011111111111110110011 d
b11111111010000000000000111101000 )"
#878
b11111111111011100000001000101111 d
b11111111000110001111110101000011 )"
#879
b11111111100100111111111010000101 d
b10001110110000000011101000 )"
#880
b1001110111111111100110111 d
b11111110100111110000000010110100 )"
#881
b11111111010000000000000111101000 d
b11111111111100111111110110011010 )"
#882
b11111111000110001111110101000011 d
b1101100100000000101010101 )"
#883
b10001110110000000011101000 d
b11111111001111000000000110110101 )"
#884
b11111110100111110000000010110100 d
b11111111111110011111110001111001 )"
#885
b11111111111100111111110110011010 d
b110110110000000111111010 )"
#886
b1101100100000000101010101 d
b11111111001010001111111101100111 )"
#887
b11111111001111000000000110110101 d
b111000111111111100010111 )"
#888
b11111111111110011111110001111001 d
b11111111100111100000000110000101 )"
#889
b110110110000000111111010 d
b1011111111111000001001 )"
#890
b11111111001010001111111101100111 d
b10010010100000000110011110 )"
#891
b111000111111111100010111 d
b11111101110100110000000011110000 )"
#892
b11111111100111100000000110000101 d
b1011101111110111001101 )"
#893
b1011111111111000001001 d
b1111000010000000111000001 )"
#894
b10010010100000000110011110 d
b11111110011100011111111110111011 )"
#895
b11111101110100110000000011110000 d
b101001111111110100111110 )"
#896
b1011101111110111001101 d
b11111111110000110000001110101111 )"
#897
b1111000010000000111000001 d
b11111111001010011111111001011010 )"
#898
b11111110011100011111111110111011 d
b1110101001111111001101010 )"
#899
b101001111111110100111110 d
b11111111110011000000001100100011 )"
#900
b11111111110000110000001110101111 d
b11111111010001001111110110110100 )"
#901
b11111111001010011111111001011010 d
b1010001000000000000111000 )"
#902
b1110101001111111001101010 d
b11111110110010000000000011011011 )"
#903
b11111111110011000000001100100011 d
b1000011001111111100001110 )"
#904
b11111111010001001111110110110100 d
b111100101111111100011010 )"
#905
b1010001000000000000111000 d
b11111101111101000000001000001101 )"
#906
b11111110110010000000000011011011 d
b1100011101111110100010001 )"
#907
b1000011001111111100001110 d
b1000000110000001001000100 )"
#908
b111100101111111100011010 d
b11111110110010000000000100110011 )"
#909
b11111101111101000000001000001101 d
b11111111101011101111110110111011 )"
#910
b1100011101111110100010001 d
b100101100000000001000101 )"
#911
b1000000110000001001000100 d
b11111111100101110000000011011100 )"
#912
b11111110110010000000000100110011 d
b110010011111111001110010 )"
#913
b11111111101011101111110110111011 d
b1001101010000000001001110 )"
#914
b100101100000000001000101 d
b11111110011000000000001000101011 )"
#915
b11111111100101110000000011011100 d
b1100111111110111100001 )"
#916
b110010011111111001110010 d
b1000000000000000010001110 )"
#917
b1001101010000000001001110 d
b111101011111111110000000 )"
#918
b11111110011000000000001000101011 d
b11111110100011101111111101000010 )"
#919
b1100111111110111100001 d
b111001000000000100100111 )"
#920
b1000000000000000010001110 d
b1010100111111111011110011 )"
#921
b111101011111111110000000 d
b11111111100111010000000100000101 )"
#922
b11111110100011101111111101000010 d
b11111110110010000000001000011111 )"
#923
b111001000000000100100111 d
b1000011111111110011110111 )"
#924
b1010100111111111011110011 d
b10111000000000010000110 )"
#925
b11111111100111010000000100000101 d
b11111110011011100000001010011000 )"
#926
b11111110110010000000001000011111 d
b10001100011111101101011111 )"
#927
b1000011111111110011110111 d
b11111100000000111110000 )"
#928
b10111000000000010000110 d
b11111110001110100000001011001100 )"
#929
b11111110011011100000001010011000 d
b11111111110010001111110001010010 )"
#930
b10001100011111101101011111 d
b10000000110000000101001100 )"
#931
b11111100000000111110000 d
b11111110110011010000001001000011 )"
#932
b11111110001110100000001011001100 d
b11111111001101111111110000011110 )"
#933
b11111111110010001111110001010010 d
b10000100111111111111011010 )"
#934
b10000000110000000101001100 d
b1011110100000001110000101 )"
#935
b11111110110011010000001001000011 d
b11111101010011011111110110111000 )"
#936
b11111111001101111111110000011110 d
b101100111111111110101010 )"
#937
b10000100111111111111011010 d
b1001100010000001100111011 )"
#938
b1011110100000001110000101 d
b11111100100001001111110011100101 )"
#939
b11111101010011011111110110111000 d
b11010100101111111011010101 )"
#940
b101100111111111110101010 d
b1001100010000001100101000 )"
#941
b1001100010000001100111011 d
b11111101101101101111111000111011 )"
#942
b11111100100001001111110011100101 d
b1011100011111111100000010 )"
#943
b11010100101111111011010101 d
b1011110100000001101000111 )"
#944
b1001100010000001100101000 d
b11111100011100111111111011000011 )"
#945
b11111101101101101111111000111011 d
b1100101111111111000110111 )"
#946
b1011100011111111100000010 d
b10001101100000000011010001 )"
#947
b1011110100000001101000111 d
b11111101101111011111111111110001 )"
#948
b11111100011100111111111011000011 d
b10001000100000000010111101 )"
#949
b1100101111111111000110111 d
b111000011111111111111110 )"
#950
b10001101100000000011010001 d
b11111111011110000000000111000000 )"
#951
b11111101101111011111111111110001 d
b11111110010010011111111100111101 )"
#952
b10001000100000000010111101 d
b11001001111111010111110 )"
#953
b111000011111111111111110 d
b1000110110000000001010010 )"
#954
b11111111011110000000000111000000 d
b1101110000000100111101 )"
#955
b11111110010010011111111100111101 d
b11111110101010101111111000101000 )"
#956
b11001001111111010111110 d
b1101001100000001000001010 )"
#957
b1000110110000000001010010 d
b11111111111000110000000010001000 )"
